info face="Tahoma" size=9 bold=0 italic=0 charset="" unicode=0 stretchH=100 smooth=1 aa=1 padding=1,1,1,1 spacing=-2,-2
common lineHeight=11 base=9 scaleW=256 scaleH=128 pages=1 packed=0
page id=0 file="ui-09.png"
chars count=286
char id=10      x=0    y=0    width=0    height=0    xoffset=-1   yoffset=0    xadvance=0    page=0    chnl=0 
char id=32      x=0    y=0    width=0    height=0    xoffset=-1   yoffset=0    xadvance=3    page=0    chnl=0 
char id=33      x=91   y=33   width=3    height=9    xoffset=-1   yoffset=1    xadvance=2    page=0    chnl=0 
char id=34      x=56   y=67   width=5    height=5    xoffset=-1   yoffset=0    xadvance=4    page=0    chnl=0 
char id=35      x=111  y=33   width=9    height=9    xoffset=-1   yoffset=1    xadvance=7    page=0    chnl=0 
char id=36      x=26   y=12   width=7    height=11   xoffset=-1   yoffset=1    xadvance=6    page=0    chnl=0 
char id=37      x=100  y=33   width=11   height=9    xoffset=-1   yoffset=1    xadvance=10   page=0    chnl=0 
char id=38      x=120  y=33   width=8    height=9    xoffset=-1   yoffset=1    xadvance=6    page=0    chnl=0 
char id=39      x=61   y=67   width=3    height=5    xoffset=-1   yoffset=0    xadvance=2    page=0    chnl=0 
char id=40      x=125  y=0    width=5    height=12   xoffset=-1   yoffset=0    xadvance=3    page=0    chnl=0 
char id=41      x=130  y=0    width=5    height=12   xoffset=-2   yoffset=0    xadvance=3    page=0    chnl=0 
char id=42      x=31   y=60   width=7    height=7    xoffset=-1   yoffset=-1   xadvance=6    page=0    chnl=0 
char id=43      x=24   y=60   width=7    height=7    xoffset=0    yoffset=2    xadvance=7    page=0    chnl=0 
char id=44      x=64   y=67   width=4    height=5    xoffset=-1   yoffset=6    xadvance=3    page=0    chnl=0 
char id=45      x=113  y=67   width=4    height=3    xoffset=-1   yoffset=5    xadvance=3    page=0    chnl=0 
char id=46      x=99   y=67   width=3    height=4    xoffset=0    yoffset=6    xadvance=3    page=0    chnl=0 
char id=47      x=16   y=12   width=5    height=11   xoffset=-1   yoffset=0    xadvance=3    page=0    chnl=0 
char id=48      x=85   y=33   width=6    height=9    xoffset=-1   yoffset=1    xadvance=5    page=0    chnl=0 
char id=49      x=31   y=33   width=5    height=9    xoffset=0    yoffset=1    xadvance=5    page=0    chnl=0 
char id=50      x=36   y=33   width=6    height=9    xoffset=-1   yoffset=1    xadvance=5    page=0    chnl=0 
char id=51      x=42   y=33   width=6    height=9    xoffset=-1   yoffset=1    xadvance=5    page=0    chnl=0 
char id=52      x=48   y=33   width=7    height=9    xoffset=-1   yoffset=1    xadvance=5    page=0    chnl=0 
char id=53      x=55   y=33   width=6    height=9    xoffset=-1   yoffset=1    xadvance=5    page=0    chnl=0 
char id=54      x=61   y=33   width=6    height=9    xoffset=-1   yoffset=1    xadvance=5    page=0    chnl=0 
char id=55      x=67   y=33   width=6    height=9    xoffset=-1   yoffset=1    xadvance=5    page=0    chnl=0 
char id=56      x=73   y=33   width=6    height=9    xoffset=-1   yoffset=1    xadvance=5    page=0    chnl=0 
char id=57      x=79   y=33   width=6    height=9    xoffset=-1   yoffset=1    xadvance=5    page=0    chnl=0 
char id=58      x=252  y=42   width=3    height=7    xoffset=0    yoffset=3    xadvance=3    page=0    chnl=0 
char id=59      x=142  y=51   width=4    height=8    xoffset=-1   yoffset=3    xadvance=3    page=0    chnl=0 
char id=60      x=10   y=60   width=7    height=7    xoffset=0    yoffset=3    xadvance=7    page=0    chnl=0 
char id=61      x=75   y=67   width=8    height=5    xoffset=-1   yoffset=4    xadvance=7    page=0    chnl=0 
char id=62      x=17   y=60   width=7    height=7    xoffset=0    yoffset=3    xadvance=7    page=0    chnl=0 
char id=63      x=94   y=33   width=6    height=9    xoffset=-1   yoffset=1    xadvance=4    page=0    chnl=0 
char id=64      x=178  y=12   width=9    height=10   xoffset=-1   yoffset=1    xadvance=8    page=0    chnl=0 
char id=65      x=36   y=23   width=10   height=9    xoffset=-2   yoffset=1    xadvance=7    page=0    chnl=0 
char id=66      x=46   y=23   width=7    height=9    xoffset=-1   yoffset=1    xadvance=6    page=0    chnl=0 
char id=67      x=53   y=23   width=8    height=9    xoffset=-1   yoffset=1    xadvance=7    page=0    chnl=0 
char id=68      x=61   y=23   width=8    height=9    xoffset=-1   yoffset=1    xadvance=7    page=0    chnl=0 
char id=69      x=69   y=23   width=7    height=9    xoffset=-1   yoffset=1    xadvance=6    page=0    chnl=0 
char id=70      x=76   y=23   width=7    height=9    xoffset=-1   yoffset=1    xadvance=6    page=0    chnl=0 
char id=71      x=83   y=23   width=8    height=9    xoffset=-1   yoffset=1    xadvance=7    page=0    chnl=0 
char id=72      x=91   y=23   width=8    height=9    xoffset=-1   yoffset=1    xadvance=7    page=0    chnl=0 
char id=73      x=99   y=23   width=5    height=9    xoffset=-1   yoffset=1    xadvance=4    page=0    chnl=0 
char id=74      x=104  y=23   width=5    height=9    xoffset=-1   yoffset=1    xadvance=4    page=0    chnl=0 
char id=75      x=109  y=23   width=7    height=9    xoffset=-1   yoffset=1    xadvance=6    page=0    chnl=0 
char id=76      x=116  y=23   width=6    height=9    xoffset=-1   yoffset=1    xadvance=4    page=0    chnl=0 
char id=77      x=122  y=23   width=9    height=9    xoffset=-1   yoffset=1    xadvance=8    page=0    chnl=0 
char id=78      x=131  y=23   width=8    height=9    xoffset=-1   yoffset=1    xadvance=7    page=0    chnl=0 
char id=79      x=139  y=23   width=9    height=9    xoffset=-1   yoffset=1    xadvance=8    page=0    chnl=0 
char id=80      x=148  y=23   width=7    height=9    xoffset=-1   yoffset=1    xadvance=6    page=0    chnl=0 
char id=81      x=240  y=0    width=9    height=11   xoffset=-1   yoffset=1    xadvance=8    page=0    chnl=0 
char id=82      x=155  y=23   width=7    height=9    xoffset=-1   yoffset=1    xadvance=6    page=0    chnl=0 
char id=83      x=162  y=23   width=7    height=9    xoffset=-1   yoffset=1    xadvance=6    page=0    chnl=0 
char id=84      x=169  y=23   width=7    height=9    xoffset=-1   yoffset=1    xadvance=6    page=0    chnl=0 
char id=85      x=176  y=23   width=8    height=9    xoffset=-1   yoffset=1    xadvance=7    page=0    chnl=0 
char id=86      x=184  y=23   width=10   height=9    xoffset=-2   yoffset=1    xadvance=7    page=0    chnl=0 
char id=87      x=194  y=23   width=9    height=9    xoffset=-1   yoffset=1    xadvance=8    page=0    chnl=0 
char id=88      x=203  y=23   width=8    height=9    xoffset=-2   yoffset=1    xadvance=5    page=0    chnl=0 
char id=89      x=211  y=23   width=7    height=9    xoffset=-1   yoffset=1    xadvance=6    page=0    chnl=0 
char id=90      x=218  y=23   width=6    height=9    xoffset=-1   yoffset=1    xadvance=5    page=0    chnl=0 
char id=91      x=135  y=0    width=4    height=12   xoffset=-1   yoffset=0    xadvance=3    page=0    chnl=0 
char id=92      x=21   y=12   width=5    height=11   xoffset=-1   yoffset=0    xadvance=3    page=0    chnl=0 
char id=93      x=139  y=0    width=4    height=12   xoffset=-1   yoffset=0    xadvance=3    page=0    chnl=0 
char id=94      x=68   y=67   width=7    height=5    xoffset=-1   yoffset=1    xadvance=7    page=0    chnl=0 
char id=95      x=117  y=67   width=7    height=3    xoffset=-1   yoffset=9    xadvance=5    page=0    chnl=0 
char id=96      x=95   y=67   width=4    height=4    xoffset=0    yoffset=0    xadvance=5    page=0    chnl=0 
char id=97      x=182  y=51   width=6    height=7    xoffset=-1   yoffset=3    xadvance=5    page=0    chnl=0 
char id=98      x=73   y=12   width=6    height=10   xoffset=-1   yoffset=0    xadvance=5    page=0    chnl=0 
char id=99      x=188  y=51   width=5    height=7    xoffset=-1   yoffset=3    xadvance=4    page=0    chnl=0 
char id=100     x=79   y=12   width=6    height=10   xoffset=-1   yoffset=0    xadvance=5    page=0    chnl=0 
char id=101     x=193  y=51   width=6    height=7    xoffset=-1   yoffset=3    xadvance=5    page=0    chnl=0 
char id=102     x=103  y=12   width=5    height=10   xoffset=-1   yoffset=0    xadvance=3    page=0    chnl=0 
char id=103     x=236  y=23   width=6    height=9    xoffset=-1   yoffset=3    xadvance=5    page=0    chnl=0 
char id=104     x=108  y=12   width=6    height=10   xoffset=-1   yoffset=0    xadvance=5    page=0    chnl=0 
char id=105     x=242  y=23   width=3    height=9    xoffset=-1   yoffset=1    xadvance=2    page=0    chnl=0 
char id=106     x=249  y=0    width=4    height=11   xoffset=-1   yoffset=1    xadvance=3    page=0    chnl=0 
char id=107     x=127  y=12   width=6    height=10   xoffset=-1   yoffset=0    xadvance=5    page=0    chnl=0 
char id=108     x=133  y=12   width=3    height=10   xoffset=-1   yoffset=0    xadvance=2    page=0    chnl=0 
char id=109     x=199  y=51   width=9    height=7    xoffset=-1   yoffset=3    xadvance=8    page=0    chnl=0 
char id=110     x=208  y=51   width=6    height=7    xoffset=-1   yoffset=3    xadvance=5    page=0    chnl=0 
char id=111     x=214  y=51   width=6    height=7    xoffset=-1   yoffset=3    xadvance=5    page=0    chnl=0 
char id=112     x=6    y=33   width=6    height=9    xoffset=-1   yoffset=3    xadvance=5    page=0    chnl=0 
char id=113     x=12   y=33   width=6    height=9    xoffset=-1   yoffset=3    xadvance=5    page=0    chnl=0 
char id=114     x=220  y=51   width=5    height=7    xoffset=-1   yoffset=3    xadvance=3    page=0    chnl=0 
char id=115     x=225  y=51   width=5    height=7    xoffset=-1   yoffset=3    xadvance=4    page=0    chnl=0 
char id=116     x=138  y=51   width=4    height=8    xoffset=-1   yoffset=2    xadvance=3    page=0    chnl=0 
char id=117     x=230  y=51   width=6    height=7    xoffset=-1   yoffset=3    xadvance=5    page=0    chnl=0 
char id=118     x=236  y=51   width=7    height=7    xoffset=-1   yoffset=3    xadvance=6    page=0    chnl=0 
char id=119     x=243  y=51   width=10   height=7    xoffset=-2   yoffset=3    xadvance=8    page=0    chnl=0 
char id=120     x=0    y=60   width=5    height=7    xoffset=-1   yoffset=3    xadvance=4    page=0    chnl=0 
char id=121     x=24   y=33   width=7    height=9    xoffset=-1   yoffset=3    xadvance=6    page=0    chnl=0 
char id=122     x=5    y=60   width=5    height=7    xoffset=-1   yoffset=3    xadvance=4    page=0    chnl=0 
char id=123     x=143  y=0    width=5    height=12   xoffset=-1   yoffset=0    xadvance=4    page=0    chnl=0 
char id=124     x=153  y=0    width=3    height=12   xoffset=0    yoffset=0    xadvance=4    page=0    chnl=0 
char id=125     x=148  y=0    width=5    height=12   xoffset=-1   yoffset=0    xadvance=4    page=0    chnl=0 
char id=126     x=102  y=67   width=8    height=4    xoffset=-1   yoffset=4    xadvance=7    page=0    chnl=0 
char id=127     x=128  y=33   width=9    height=9    xoffset=0    yoffset=1    xadvance=9    page=0    chnl=0 
char id=163     x=96   y=51   width=6    height=9    xoffset=-1   yoffset=1    xadvance=5    page=0    chnl=0 
char id=169     x=6    y=23   width=10   height=10   xoffset=-1   yoffset=1    xadvance=8    page=0    chnl=0 
char id=172     x=83   y=67   width=7    height=5    xoffset=0    yoffset=4    xadvance=7    page=0    chnl=0 
char id=174     x=16   y=23   width=10   height=10   xoffset=-1   yoffset=1    xadvance=8    page=0    chnl=0 
char id=176     x=90   y=67   width=5    height=5    xoffset=-1   yoffset=1    xadvance=4    page=0    chnl=0 
char id=177     x=0    y=67   width=7    height=7    xoffset=0    yoffset=2    xadvance=7    page=0    chnl=0 
char id=178     x=46   y=67   width=5    height=6    xoffset=0    yoffset=1    xadvance=4    page=0    chnl=0 
char id=179     x=51   y=67   width=5    height=6    xoffset=0    yoffset=1    xadvance=4    page=0    chnl=0 
char id=182     x=49   y=12   width=6    height=11   xoffset=-1   yoffset=1    xadvance=5    page=0    chnl=0 
char id=183     x=110  y=67   width=3    height=4    xoffset=0    yoffset=3    xadvance=3    page=0    chnl=0 
char id=188     x=108  y=51   width=10   height=9    xoffset=0    yoffset=1    xadvance=9    page=0    chnl=0 
char id=189     x=118  y=51   width=10   height=9    xoffset=0    yoffset=1    xadvance=9    page=0    chnl=0 
char id=190     x=128  y=51   width=10   height=9    xoffset=0    yoffset=1    xadvance=9    page=0    chnl=0 
char id=192     x=0    y=0    width=10   height=12   xoffset=-2   yoffset=-2   xadvance=7    page=0    chnl=0 
char id=193     x=10   y=0    width=10   height=12   xoffset=-2   yoffset=-2   xadvance=7    page=0    chnl=0 
char id=194     x=20   y=0    width=10   height=12   xoffset=-2   yoffset=-2   xadvance=7    page=0    chnl=0 
char id=196     x=218  y=0    width=10   height=11   xoffset=-2   yoffset=-1   xadvance=7    page=0    chnl=0 
char id=199     x=8    y=12   width=8    height=11   xoffset=-1   yoffset=1    xadvance=7    page=0    chnl=0 
char id=200     x=30   y=0    width=7    height=12   xoffset=-1   yoffset=-2   xadvance=6    page=0    chnl=0 
char id=201     x=37   y=0    width=7    height=12   xoffset=-1   yoffset=-2   xadvance=6    page=0    chnl=0 
char id=202     x=44   y=0    width=7    height=12   xoffset=-1   yoffset=-2   xadvance=6    page=0    chnl=0 
char id=203     x=228  y=0    width=7    height=11   xoffset=-1   yoffset=-1   xadvance=6    page=0    chnl=0 
char id=204     x=51   y=0    width=5    height=12   xoffset=-1   yoffset=-2   xadvance=4    page=0    chnl=0 
char id=205     x=56   y=0    width=5    height=12   xoffset=-1   yoffset=-2   xadvance=4    page=0    chnl=0 
char id=206     x=61   y=0    width=5    height=12   xoffset=-1   yoffset=-2   xadvance=4    page=0    chnl=0 
char id=207     x=235  y=0    width=5    height=11   xoffset=-1   yoffset=-1   xadvance=4    page=0    chnl=0 
char id=209     x=117  y=0    width=8    height=12   xoffset=-1   yoffset=-2   xadvance=7    page=0    chnl=0 
char id=210     x=66   y=0    width=9    height=12   xoffset=-1   yoffset=-2   xadvance=8    page=0    chnl=0 
char id=211     x=75   y=0    width=9    height=12   xoffset=-1   yoffset=-2   xadvance=8    page=0    chnl=0 
char id=212     x=84   y=0    width=9    height=12   xoffset=-1   yoffset=-2   xadvance=8    page=0    chnl=0 
char id=215     x=7    y=67   width=7    height=7    xoffset=0    yoffset=3    xadvance=7    page=0    chnl=0 
char id=217     x=93   y=0    width=8    height=12   xoffset=-1   yoffset=-2   xadvance=7    page=0    chnl=0 
char id=218     x=101  y=0    width=8    height=12   xoffset=-1   yoffset=-2   xadvance=7    page=0    chnl=0 
char id=219     x=109  y=0    width=8    height=12   xoffset=-1   yoffset=-2   xadvance=7    page=0    chnl=0 
char id=220     x=0    y=12   width=8    height=11   xoffset=-1   yoffset=-1   xadvance=7    page=0    chnl=0 
char id=223     x=0    y=23   width=6    height=10   xoffset=-1   yoffset=0    xadvance=5    page=0    chnl=0 
char id=224     x=55   y=12   width=6    height=10   xoffset=-1   yoffset=0    xadvance=5    page=0    chnl=0 
char id=225     x=61   y=12   width=6    height=10   xoffset=-1   yoffset=0    xadvance=5    page=0    chnl=0 
char id=226     x=67   y=12   width=6    height=10   xoffset=-1   yoffset=0    xadvance=5    page=0    chnl=0 
char id=228     x=224  y=23   width=6    height=9    xoffset=-1   yoffset=1    xadvance=5    page=0    chnl=0 
char id=231     x=250  y=23   width=5    height=9    xoffset=-1   yoffset=3    xadvance=4    page=0    chnl=0 
char id=232     x=85   y=12   width=6    height=10   xoffset=-1   yoffset=0    xadvance=5    page=0    chnl=0 
char id=233     x=91   y=12   width=6    height=10   xoffset=-1   yoffset=0    xadvance=5    page=0    chnl=0 
char id=234     x=97   y=12   width=6    height=10   xoffset=-1   yoffset=0    xadvance=5    page=0    chnl=0 
char id=235     x=230  y=23   width=6    height=9    xoffset=-1   yoffset=1    xadvance=5    page=0    chnl=0 
char id=236     x=114  y=12   width=4    height=10   xoffset=-2   yoffset=0    xadvance=2    page=0    chnl=0 
char id=237     x=118  y=12   width=4    height=10   xoffset=-1   yoffset=0    xadvance=2    page=0    chnl=0 
char id=238     x=122  y=12   width=5    height=10   xoffset=-2   yoffset=0    xadvance=2    page=0    chnl=0 
char id=239     x=245  y=23   width=5    height=9    xoffset=-2   yoffset=1    xadvance=2    page=0    chnl=0 
char id=241     x=172  y=12   width=6    height=10   xoffset=-1   yoffset=0    xadvance=5    page=0    chnl=0 
char id=242     x=136  y=12   width=6    height=10   xoffset=-1   yoffset=0    xadvance=5    page=0    chnl=0 
char id=243     x=142  y=12   width=6    height=10   xoffset=-1   yoffset=0    xadvance=5    page=0    chnl=0 
char id=244     x=148  y=12   width=6    height=10   xoffset=-1   yoffset=0    xadvance=5    page=0    chnl=0 
char id=246     x=0    y=33   width=6    height=9    xoffset=-1   yoffset=1    xadvance=5    page=0    chnl=0 
char id=247     x=14   y=67   width=7    height=7    xoffset=0    yoffset=2    xadvance=7    page=0    chnl=0 
char id=249     x=154  y=12   width=6    height=10   xoffset=-1   yoffset=0    xadvance=5    page=0    chnl=0 
char id=250     x=160  y=12   width=6    height=10   xoffset=-1   yoffset=0    xadvance=5    page=0    chnl=0 
char id=251     x=166  y=12   width=6    height=10   xoffset=-1   yoffset=0    xadvance=5    page=0    chnl=0 
char id=252     x=18   y=33   width=6    height=9    xoffset=-1   yoffset=1    xadvance=5    page=0    chnl=0 
char id=268     x=197  y=0    width=8    height=12   xoffset=-1   yoffset=-2   xadvance=7    page=0    chnl=0 
char id=269     x=250  y=12   width=5    height=10   xoffset=-1   yoffset=0    xadvance=4    page=0    chnl=0 
char id=352     x=211  y=0    width=7    height=12   xoffset=-1   yoffset=-2   xadvance=6    page=0    chnl=0 
char id=353     x=31   y=23   width=5    height=10   xoffset=-1   yoffset=0    xadvance=4    page=0    chnl=0 
char id=381     x=205  y=0    width=6    height=12   xoffset=-1   yoffset=-2   xadvance=5    page=0    chnl=0 
char id=382     x=26   y=23   width=5    height=10   xoffset=-1   yoffset=0    xadvance=4    page=0    chnl=0 
char id=913     x=17   y=42   width=10   height=9    xoffset=-2   yoffset=1    xadvance=7    page=0    chnl=0 
char id=914     x=95   y=42   width=7    height=9    xoffset=-1   yoffset=1    xadvance=6    page=0    chnl=0 
char id=915     x=43   y=42   width=6    height=9    xoffset=-1   yoffset=1    xadvance=5    page=0    chnl=0 
char id=916     x=27   y=42   width=7    height=9    xoffset=-1   yoffset=1    xadvance=6    page=0    chnl=0 
char id=917     x=206  y=33   width=7    height=9    xoffset=-1   yoffset=1    xadvance=6    page=0    chnl=0 
char id=918     x=74   y=42   width=6    height=9    xoffset=-1   yoffset=1    xadvance=5    page=0    chnl=0 
char id=919     x=49   y=42   width=8    height=9    xoffset=-1   yoffset=1    xadvance=7    page=0    chnl=0 
char id=920     x=190  y=33   width=9    height=9    xoffset=-1   yoffset=1    xadvance=8    page=0    chnl=0 
char id=921     x=243  y=33   width=5    height=9    xoffset=-1   yoffset=1    xadvance=4    page=0    chnl=0 
char id=922     x=57   y=42   width=7    height=9    xoffset=-1   yoffset=1    xadvance=6    page=0    chnl=0 
char id=923     x=64   y=42   width=10   height=9    xoffset=-2   yoffset=1    xadvance=7    page=0    chnl=0 
char id=924     x=110  y=42   width=9    height=9    xoffset=-1   yoffset=1    xadvance=8    page=0    chnl=0 
char id=925     x=102  y=42   width=8    height=9    xoffset=-1   yoffset=1    xadvance=7    page=0    chnl=0 
char id=926     x=88   y=42   width=7    height=9    xoffset=-1   yoffset=1    xadvance=6    page=0    chnl=0 
char id=927     x=0    y=42   width=9    height=9    xoffset=-1   yoffset=1    xadvance=8    page=0    chnl=0 
char id=928     x=9    y=42   width=8    height=9    xoffset=-1   yoffset=1    xadvance=7    page=0    chnl=0 
char id=929     x=213  y=33   width=7    height=9    xoffset=-1   yoffset=1    xadvance=6    page=0    chnl=0 
char id=931     x=248  y=33   width=6    height=9    xoffset=-1   yoffset=1    xadvance=5    page=0    chnl=0 
char id=932     x=220  y=33   width=7    height=9    xoffset=-1   yoffset=1    xadvance=6    page=0    chnl=0 
char id=933     x=236  y=33   width=7    height=9    xoffset=-1   yoffset=1    xadvance=6    page=0    chnl=0 
char id=934     x=34   y=42   width=9    height=9    xoffset=-1   yoffset=1    xadvance=8    page=0    chnl=0 
char id=935     x=80   y=42   width=8    height=9    xoffset=-2   yoffset=1    xadvance=5    page=0    chnl=0 
char id=936     x=227  y=33   width=9    height=9    xoffset=-1   yoffset=1    xadvance=8    page=0    chnl=0 
char id=937     x=199  y=33   width=7    height=9    xoffset=-1   yoffset=1    xadvance=6    page=0    chnl=0 
char id=945     x=80   y=60   width=6    height=7    xoffset=-1   yoffset=3    xadvance=5    page=0    chnl=0 
char id=946     x=167  y=0    width=6    height=12   xoffset=-1   yoffset=0    xadvance=5    page=0    chnl=0 
char id=947     x=159  y=33   width=9    height=9    xoffset=-2   yoffset=3    xadvance=6    page=0    chnl=0 
char id=948     x=193  y=12   width=6    height=10   xoffset=-1   yoffset=0    xadvance=5    page=0    chnl=0 
char id=949     x=47   y=60   width=5    height=7    xoffset=-1   yoffset=3    xadvance=4    page=0    chnl=0 
char id=950     x=156  y=0    width=6    height=12   xoffset=-1   yoffset=0    xadvance=4    page=0    chnl=0 
char id=951     x=168  y=33   width=6    height=9    xoffset=-1   yoffset=3    xadvance=5    page=0    chnl=0 
char id=952     x=187  y=12   width=6    height=10   xoffset=-1   yoffset=0    xadvance=5    page=0    chnl=0 
char id=953     x=65   y=60   width=3    height=7    xoffset=-1   yoffset=3    xadvance=2    page=0    chnl=0 
char id=954     x=93   y=60   width=6    height=7    xoffset=-1   yoffset=3    xadvance=4    page=0    chnl=0 
char id=955     x=199  y=12   width=7    height=10   xoffset=-2   yoffset=0    xadvance=5    page=0    chnl=0 
char id=956     x=184  y=33   width=6    height=9    xoffset=-1   yoffset=3    xadvance=5    page=0    chnl=0 
char id=957     x=99   y=60   width=7    height=7    xoffset=-1   yoffset=3    xadvance=6    page=0    chnl=0 
char id=958     x=162  y=0    width=5    height=12   xoffset=-1   yoffset=0    xadvance=4    page=0    chnl=0 
char id=959     x=68   y=60   width=6    height=7    xoffset=-1   yoffset=3    xadvance=5    page=0    chnl=0 
char id=960     x=74   y=60   width=6    height=7    xoffset=-1   yoffset=3    xadvance=5    page=0    chnl=0 
char id=961     x=137  y=33   width=6    height=9    xoffset=-1   yoffset=3    xadvance=5    page=0    chnl=0 
char id=962     x=174  y=33   width=5    height=9    xoffset=-1   yoffset=3    xadvance=4    page=0    chnl=0 
char id=963     x=86   y=60   width=7    height=7    xoffset=-1   yoffset=3    xadvance=5    page=0    chnl=0 
char id=964     x=52   y=60   width=7    height=7    xoffset=-1   yoffset=3    xadvance=5    page=0    chnl=0 
char id=965     x=59   y=60   width=6    height=7    xoffset=-1   yoffset=3    xadvance=5    page=0    chnl=0 
char id=966     x=150  y=33   width=9    height=9    xoffset=-1   yoffset=3    xadvance=8    page=0    chnl=0 
char id=967     x=179  y=33   width=5    height=9    xoffset=-1   yoffset=3    xadvance=4    page=0    chnl=0 
char id=968     x=143  y=33   width=7    height=9    xoffset=-1   yoffset=3    xadvance=6    page=0    chnl=0 
char id=969     x=38   y=60   width=9    height=7    xoffset=-1   yoffset=3    xadvance=8    page=0    chnl=0 
char id=1025    x=33   y=12   width=7    height=11   xoffset=-1   yoffset=-1   xadvance=6    page=0    chnl=0 
char id=1040    x=17   y=42   width=10   height=9    xoffset=-2   yoffset=1    xadvance=7    page=0    chnl=0 
char id=1041    x=119  y=42   width=6    height=9    xoffset=-1   yoffset=1    xadvance=5    page=0    chnl=0 
char id=1042    x=125  y=42   width=7    height=9    xoffset=-1   yoffset=1    xadvance=6    page=0    chnl=0 
char id=1043    x=132  y=42   width=6    height=9    xoffset=-1   yoffset=1    xadvance=5    page=0    chnl=0 
char id=1044    x=212  y=12   width=8    height=10   xoffset=-1   yoffset=1    xadvance=7    page=0    chnl=0 
char id=1045    x=138  y=42   width=7    height=9    xoffset=-1   yoffset=1    xadvance=6    page=0    chnl=0 
char id=1046    x=151  y=42   width=11   height=9    xoffset=-2   yoffset=1    xadvance=8    page=0    chnl=0 
char id=1047    x=162  y=42   width=6    height=9    xoffset=-1   yoffset=1    xadvance=5    page=0    chnl=0 
char id=1048    x=168  y=42   width=8    height=9    xoffset=-1   yoffset=1    xadvance=7    page=0    chnl=0 
char id=1049    x=173  y=0    width=8    height=12   xoffset=-1   yoffset=-2   xadvance=7    page=0    chnl=0 
char id=1050    x=176  y=42   width=7    height=9    xoffset=-1   yoffset=1    xadvance=6    page=0    chnl=0 
char id=1051    x=183  y=42   width=7    height=9    xoffset=-1   yoffset=1    xadvance=6    page=0    chnl=0 
char id=1052    x=190  y=42   width=9    height=9    xoffset=-1   yoffset=1    xadvance=8    page=0    chnl=0 
char id=1053    x=199  y=42   width=8    height=9    xoffset=-1   yoffset=1    xadvance=7    page=0    chnl=0 
char id=1054    x=207  y=42   width=9    height=9    xoffset=-1   yoffset=1    xadvance=8    page=0    chnl=0 
char id=1055    x=216  y=42   width=8    height=9    xoffset=-1   yoffset=1    xadvance=7    page=0    chnl=0 
char id=1056    x=224  y=42   width=7    height=9    xoffset=-1   yoffset=1    xadvance=6    page=0    chnl=0 
char id=1057    x=237  y=42   width=8    height=9    xoffset=-1   yoffset=1    xadvance=7    page=0    chnl=0 
char id=1058    x=245  y=42   width=7    height=9    xoffset=-1   yoffset=1    xadvance=6    page=0    chnl=0 
char id=1059    x=0    y=51   width=9    height=9    xoffset=-2   yoffset=1    xadvance=6    page=0    chnl=0 
char id=1060    x=16   y=51   width=9    height=9    xoffset=-1   yoffset=1    xadvance=8    page=0    chnl=0 
char id=1061    x=25   y=51   width=8    height=9    xoffset=-2   yoffset=1    xadvance=5    page=0    chnl=0 
char id=1062    x=226  y=12   width=8    height=10   xoffset=-1   yoffset=1    xadvance=7    page=0    chnl=0 
char id=1063    x=33   y=51   width=7    height=9    xoffset=-1   yoffset=1    xadvance=6    page=0    chnl=0 
char id=1064    x=40   y=51   width=9    height=9    xoffset=-1   yoffset=1    xadvance=8    page=0    chnl=0 
char id=1065    x=234  y=12   width=10   height=10   xoffset=-1   yoffset=1    xadvance=9    page=0    chnl=0 
char id=1066    x=49   y=51   width=8    height=9    xoffset=-1   yoffset=1    xadvance=7    page=0    chnl=0 
char id=1067    x=57   y=51   width=8    height=9    xoffset=-1   yoffset=1    xadvance=7    page=0    chnl=0 
char id=1068    x=65   y=51   width=6    height=9    xoffset=-1   yoffset=1    xadvance=5    page=0    chnl=0 
char id=1069    x=71   y=51   width=8    height=9    xoffset=-1   yoffset=1    xadvance=7    page=0    chnl=0 
char id=1070    x=79   y=51   width=10   height=9    xoffset=-1   yoffset=1    xadvance=9    page=0    chnl=0 
char id=1071    x=89   y=51   width=7    height=9    xoffset=-1   yoffset=1    xadvance=6    page=0    chnl=0 
char id=1072    x=106  y=60   width=6    height=7    xoffset=-1   yoffset=3    xadvance=5    page=0    chnl=0 
char id=1073    x=206  y=12   width=6    height=10   xoffset=-1   yoffset=0    xadvance=5    page=0    chnl=0 
char id=1074    x=112  y=60   width=6    height=7    xoffset=-1   yoffset=3    xadvance=5    page=0    chnl=0 
char id=1075    x=118  y=60   width=5    height=7    xoffset=-1   yoffset=3    xadvance=4    page=0    chnl=0 
char id=1076    x=146  y=51   width=7    height=8    xoffset=-1   yoffset=3    xadvance=5    page=0    chnl=0 
char id=1077    x=123  y=60   width=6    height=7    xoffset=-1   yoffset=3    xadvance=5    page=0    chnl=0 
char id=1078    x=129  y=60   width=9    height=7    xoffset=-1   yoffset=3    xadvance=8    page=0    chnl=0 
char id=1079    x=138  y=60   width=5    height=7    xoffset=-1   yoffset=3    xadvance=4    page=0    chnl=0 
char id=1080    x=143  y=60   width=6    height=7    xoffset=-1   yoffset=3    xadvance=5    page=0    chnl=0 
char id=1081    x=220  y=12   width=6    height=10   xoffset=-1   yoffset=0    xadvance=5    page=0    chnl=0 
char id=1082    x=149  y=60   width=6    height=7    xoffset=-1   yoffset=3    xadvance=4    page=0    chnl=0 
char id=1083    x=155  y=60   width=6    height=7    xoffset=-1   yoffset=3    xadvance=5    page=0    chnl=0 
char id=1084    x=161  y=60   width=7    height=7    xoffset=-1   yoffset=3    xadvance=6    page=0    chnl=0 
char id=1085    x=168  y=60   width=6    height=7    xoffset=-1   yoffset=3    xadvance=5    page=0    chnl=0 
char id=1086    x=174  y=60   width=6    height=7    xoffset=-1   yoffset=3    xadvance=5    page=0    chnl=0 
char id=1087    x=180  y=60   width=6    height=7    xoffset=-1   yoffset=3    xadvance=5    page=0    chnl=0 
char id=1088    x=231  y=42   width=6    height=9    xoffset=-1   yoffset=3    xadvance=5    page=0    chnl=0 
char id=1089    x=186  y=60   width=5    height=7    xoffset=-1   yoffset=3    xadvance=4    page=0    chnl=0 
char id=1090    x=191  y=60   width=7    height=7    xoffset=-1   yoffset=3    xadvance=6    page=0    chnl=0 
char id=1091    x=9    y=51   width=7    height=9    xoffset=-1   yoffset=3    xadvance=6    page=0    chnl=0 
char id=1092    x=181  y=0    width=9    height=12   xoffset=-1   yoffset=0    xadvance=8    page=0    chnl=0 
char id=1093    x=198  y=60   width=5    height=7    xoffset=-1   yoffset=3    xadvance=4    page=0    chnl=0 
char id=1094    x=153  y=51   width=7    height=8    xoffset=-1   yoffset=3    xadvance=6    page=0    chnl=0 
char id=1095    x=203  y=60   width=6    height=7    xoffset=-1   yoffset=3    xadvance=5    page=0    chnl=0 
char id=1096    x=209  y=60   width=7    height=7    xoffset=-1   yoffset=3    xadvance=6    page=0    chnl=0 
char id=1097    x=160  y=51   width=8    height=8    xoffset=-1   yoffset=3    xadvance=7    page=0    chnl=0 
char id=1098    x=216  y=60   width=6    height=7    xoffset=-1   yoffset=3    xadvance=5    page=0    chnl=0 
char id=1099    x=222  y=60   width=7    height=7    xoffset=-1   yoffset=3    xadvance=6    page=0    chnl=0 
char id=1100    x=229  y=60   width=6    height=7    xoffset=-1   yoffset=3    xadvance=5    page=0    chnl=0 
char id=1101    x=235  y=60   width=5    height=7    xoffset=-1   yoffset=3    xadvance=4    page=0    chnl=0 
char id=1102    x=240  y=60   width=8    height=7    xoffset=-1   yoffset=3    xadvance=7    page=0    chnl=0 
char id=1103    x=248  y=60   width=6    height=7    xoffset=-1   yoffset=3    xadvance=5    page=0    chnl=0 
char id=1105    x=145  y=42   width=6    height=9    xoffset=-1   yoffset=1    xadvance=5    page=0    chnl=0 
char id=8364    x=102  y=51   width=6    height=9    xoffset=-1   yoffset=1    xadvance=5    page=0    chnl=0 
char id=8721    x=244  y=12   width=6    height=10   xoffset=0    yoffset=1    xadvance=6    page=0    chnl=0 
char id=8730    x=40   y=12   width=9    height=11   xoffset=-1   yoffset=0    xadvance=7    page=0    chnl=0 
char id=8734    x=36   y=67   width=10   height=6    xoffset=-1   yoffset=3    xadvance=8    page=0    chnl=0 
char id=8747    x=190  y=0    width=7    height=12   xoffset=-1   yoffset=0    xadvance=5    page=0    chnl=0 
char id=8776    x=29   y=67   width=7    height=7    xoffset=0    yoffset=3    xadvance=7    page=0    chnl=0 
char id=8800    x=21   y=67   width=8    height=7    xoffset=-1   yoffset=2    xadvance=7    page=0    chnl=0 
char id=8804    x=168  y=51   width=7    height=8    xoffset=0    yoffset=2    xadvance=7    page=0    chnl=0 
char id=8805    x=175  y=51   width=7    height=8    xoffset=0    yoffset=2    xadvance=7    page=0    chnl=0 
kernings count=59
kerning first=46 second=44 amount=-1
kerning first=70 second=46 amount=-1
kerning first=76 second=39 amount=-1
kerning first=89 second=44 amount=-1
kerning first=84 second=45 amount=-1
kerning first=84 second=46 amount=-1
kerning first=84 second=58 amount=-1
kerning first=89 second=59 amount=-1
kerning first=76 second=45 amount=-1
kerning first=45 second=89 amount=-1
kerning first=102 second=63 amount=1
kerning first=84 second=65 amount=-1
kerning first=114 second=46 amount=-1
kerning first=46 second=45 amount=-1
kerning first=89 second=101 amount=-1
kerning first=121 second=44 amount=-1
kerning first=89 second=111 amount=-1
kerning first=87 second=46 amount=-1
kerning first=84 second=97 amount=-1
kerning first=84 second=99 amount=-1
kerning first=89 second=100 amount=-1
kerning first=84 second=101 amount=-1
kerning first=84 second=103 amount=-1
kerning first=45 second=84 amount=-1
kerning first=84 second=111 amount=-1
kerning first=89 second=113 amount=-1
kerning first=84 second=114 amount=-1
kerning first=84 second=115 amount=-1
kerning first=84 second=117 amount=-1
kerning first=84 second=118 amount=-1
kerning first=84 second=119 amount=-1
kerning first=86 second=46 amount=-1
kerning first=84 second=122 amount=-1
kerning first=89 second=103 amount=-1
kerning first=89 second=46 amount=-1
kerning first=86 second=44 amount=-1
kerning first=102 second=238 amount=1
kerning first=65 second=84 amount=-1
kerning first=84 second=44 amount=-1
kerning first=55 second=44 amount=-1
kerning first=118 second=44 amount=-1
kerning first=114 second=44 amount=-1
kerning first=87 second=44 amount=-1
kerning first=102 second=46 amount=-1
kerning first=84 second=59 amount=-1
kerning first=80 second=46 amount=-1
kerning first=89 second=97 amount=-1
kerning first=70 second=44 amount=-1
kerning first=55 second=46 amount=-1
kerning first=84 second=121 amount=-1
kerning first=76 second=84 amount=-1
kerning first=80 second=44 amount=-1
kerning first=89 second=45 amount=-1
kerning first=101 second=84 amount=-1
kerning first=102 second=44 amount=-1
kerning first=89 second=58 amount=-1
kerning first=118 second=46 amount=-1
kerning first=121 second=46 amount=-1
kerning first=76 second=89 amount=-1
