info face="Tahoma" size=15 bold=1 italic=0 charset="" unicode=0 stretchH=100 smooth=1 aa=1 padding=1,1,1,1 spacing=0,0
common lineHeight=21 base=15 scaleW=512 scaleH=128 pages=1 packed=0
page id=0 file="ui-15-bold.png"
chars count=286
char id=10      x=0    y=0    width=0    height=0    xoffset=-1   yoffset=0    xadvance=2    page=0    chnl=0 
char id=32      x=0    y=0    width=0    height=0    xoffset=-1   yoffset=0    xadvance=8    page=0    chnl=0 
char id=33      x=281  y=34   width=4    height=14   xoffset=0    yoffset=2    xadvance=7    page=0    chnl=0 
char id=34      x=403  y=76   width=8    height=7    xoffset=-1   yoffset=1    xadvance=9    page=0    chnl=0 
char id=35      x=316  y=34   width=12   height=14   xoffset=0    yoffset=2    xadvance=14   page=0    chnl=0 
char id=36      x=214  y=0    width=9    height=18   xoffset=0    yoffset=1    xadvance=11   page=0    chnl=0 
char id=37      x=300  y=34   width=16   height=14   xoffset=0    yoffset=2    xadvance=18   page=0    chnl=0 
char id=38      x=328  y=34   width=14   height=14   xoffset=-1   yoffset=2    xadvance=13   page=0    chnl=0 
char id=39      x=411  y=76   width=5    height=7    xoffset=-1   yoffset=1    xadvance=6    page=0    chnl=0 
char id=40      x=164  y=0    width=7    height=18   xoffset=0    yoffset=1    xadvance=9    page=0    chnl=0 
char id=41      x=171  y=0    width=7    height=18   xoffset=0    yoffset=1    xadvance=9    page=0    chnl=0 
char id=42      x=308  y=76   width=11   height=10   xoffset=-1   yoffset=1    xadvance=11   page=0    chnl=0 
char id=43      x=241  y=62   width=12   height=12   xoffset=0    yoffset=4    xadvance=14   page=0    chnl=0 
char id=44      x=371  y=76   width=7    height=8    xoffset=-1   yoffset=11   xadvance=8    page=0    chnl=0 
char id=45      x=453  y=76   width=7    height=4    xoffset=-1   yoffset=8    xadvance=8    page=0    chnl=0 
char id=46      x=445  y=76   width=4    height=5    xoffset=1    yoffset=11   xadvance=8    page=0    chnl=0 
char id=47      x=351  y=0    width=10   height=17   xoffset=-2   yoffset=1    xadvance=9    page=0    chnl=0 
char id=48      x=271  y=34   width=10   height=14   xoffset=-1   yoffset=2    xadvance=11   page=0    chnl=0 
char id=49      x=184  y=34   width=8    height=14   xoffset=1    yoffset=2    xadvance=11   page=0    chnl=0 
char id=50      x=192  y=34   width=9    height=14   xoffset=0    yoffset=2    xadvance=11   page=0    chnl=0 
char id=51      x=201  y=34   width=10   height=14   xoffset=-1   yoffset=2    xadvance=11   page=0    chnl=0 
char id=52      x=211  y=34   width=10   height=14   xoffset=-1   yoffset=2    xadvance=11   page=0    chnl=0 
char id=53      x=221  y=34   width=10   height=14   xoffset=-1   yoffset=2    xadvance=11   page=0    chnl=0 
char id=54      x=231  y=34   width=10   height=14   xoffset=-1   yoffset=2    xadvance=11   page=0    chnl=0 
char id=55      x=241  y=34   width=10   height=14   xoffset=-1   yoffset=2    xadvance=11   page=0    chnl=0 
char id=56      x=251  y=34   width=10   height=14   xoffset=-1   yoffset=2    xadvance=11   page=0    chnl=0 
char id=57      x=261  y=34   width=10   height=14   xoffset=-1   yoffset=2    xadvance=11   page=0    chnl=0 
char id=58      x=507  y=34   width=4    height=11   xoffset=1    yoffset=5    xadvance=8    page=0    chnl=0 
char id=59      x=294  y=34   width=6    height=14   xoffset=-1   yoffset=5    xadvance=8    page=0    chnl=0 
char id=60      x=173  y=62   width=11   height=13   xoffset=0    yoffset=3    xadvance=14   page=0    chnl=0 
char id=61      x=416  y=76   width=11   height=7    xoffset=0    yoffset=6    xadvance=14   page=0    chnl=0 
char id=62      x=184  y=62   width=11   height=13   xoffset=1    yoffset=3    xadvance=14   page=0    chnl=0 
char id=63      x=285  y=34   width=9    height=14   xoffset=-1   yoffset=2    xadvance=10   page=0    chnl=0 
char id=64      x=446  y=0    width=15   height=16   xoffset=0    yoffset=2    xadvance=17   page=0    chnl=0 
char id=65      x=344  y=18   width=12   height=14   xoffset=-2   yoffset=2    xadvance=12   page=0    chnl=0 
char id=66      x=356  y=18   width=11   height=14   xoffset=-1   yoffset=2    xadvance=12   page=0    chnl=0 
char id=67      x=367  y=18   width=11   height=14   xoffset=-1   yoffset=2    xadvance=12   page=0    chnl=0 
char id=68      x=378  y=18   width=12   height=14   xoffset=-1   yoffset=2    xadvance=13   page=0    chnl=0 
char id=69      x=390  y=18   width=10   height=14   xoffset=-1   yoffset=2    xadvance=11   page=0    chnl=0 
char id=70      x=400  y=18   width=10   height=14   xoffset=-1   yoffset=2    xadvance=11   page=0    chnl=0 
char id=71      x=410  y=18   width=12   height=14   xoffset=-1   yoffset=2    xadvance=13   page=0    chnl=0 
char id=72      x=422  y=18   width=12   height=14   xoffset=-1   yoffset=2    xadvance=13   page=0    chnl=0 
char id=73      x=434  y=18   width=6    height=14   xoffset=0    yoffset=2    xadvance=9    page=0    chnl=0 
char id=74      x=440  y=18   width=8    height=14   xoffset=-1   yoffset=2    xadvance=9    page=0    chnl=0 
char id=75      x=448  y=18   width=12   height=14   xoffset=-1   yoffset=2    xadvance=12   page=0    chnl=0 
char id=76      x=460  y=18   width=9    height=14   xoffset=-1   yoffset=2    xadvance=10   page=0    chnl=0 
char id=77      x=469  y=18   width=14   height=14   xoffset=-1   yoffset=2    xadvance=15   page=0    chnl=0 
char id=78      x=483  y=18   width=12   height=14   xoffset=-1   yoffset=2    xadvance=13   page=0    chnl=0 
char id=79      x=495  y=18   width=13   height=14   xoffset=-1   yoffset=2    xadvance=14   page=0    chnl=0 
char id=80      x=0    y=34   width=10   height=14   xoffset=-1   yoffset=2    xadvance=11   page=0    chnl=0 
char id=81      x=308  y=0    width=13   height=17   xoffset=-1   yoffset=2    xadvance=14   page=0    chnl=0 
char id=82      x=10   y=34   width=11   height=14   xoffset=-1   yoffset=2    xadvance=12   page=0    chnl=0 
char id=83      x=21   y=34   width=10   height=14   xoffset=-1   yoffset=2    xadvance=11   page=0    chnl=0 
char id=84      x=31   y=34   width=12   height=14   xoffset=-1   yoffset=2    xadvance=13   page=0    chnl=0 
char id=85      x=43   y=34   width=12   height=14   xoffset=-1   yoffset=2    xadvance=13   page=0    chnl=0 
char id=86      x=55   y=34   width=12   height=14   xoffset=-2   yoffset=2    xadvance=12   page=0    chnl=0 
char id=87      x=67   y=34   width=17   height=14   xoffset=-2   yoffset=2    xadvance=17   page=0    chnl=0 
char id=88      x=84   y=34   width=12   height=14   xoffset=-2   yoffset=2    xadvance=12   page=0    chnl=0 
char id=89      x=96   y=34   width=13   height=14   xoffset=-2   yoffset=2    xadvance=13   page=0    chnl=0 
char id=90      x=109  y=34   width=10   height=14   xoffset=-1   yoffset=2    xadvance=11   page=0    chnl=0 
char id=91      x=178  y=0    width=7    height=18   xoffset=0    yoffset=1    xadvance=9    page=0    chnl=0 
char id=92      x=361  y=0    width=10   height=17   xoffset=-2   yoffset=1    xadvance=9    page=0    chnl=0 
char id=93      x=185  y=0    width=7    height=18   xoffset=0    yoffset=1    xadvance=9    page=0    chnl=0 
char id=94      x=378  y=76   width=13   height=8    xoffset=-1   yoffset=2    xadvance=14   page=0    chnl=0 
char id=95      x=460  y=76   width=11   height=4    xoffset=-1   yoffset=14   xadvance=11   page=0    chnl=0 
char id=96      x=439  y=76   width=6    height=6    xoffset=1    yoffset=1    xadvance=11   page=0    chnl=0 
char id=97      x=311  y=62   width=10   height=11   xoffset=-1   yoffset=5    xadvance=11   page=0    chnl=0 
char id=98      x=63   y=18   width=10   height=15   xoffset=-1   yoffset=1    xadvance=11   page=0    chnl=0 
char id=99      x=321  y=62   width=9    height=11   xoffset=-1   yoffset=5    xadvance=10   page=0    chnl=0 
char id=100     x=73   y=18   width=10   height=15   xoffset=-1   yoffset=1    xadvance=11   page=0    chnl=0 
char id=101     x=330  y=62   width=10   height=11   xoffset=-1   yoffset=5    xadvance=11   page=0    chnl=0 
char id=102     x=113  y=18   width=8    height=15   xoffset=-1   yoffset=1    xadvance=8    page=0    chnl=0 
char id=103     x=119  y=34   width=10   height=14   xoffset=-1   yoffset=5    xadvance=11   page=0    chnl=0 
char id=104     x=121  y=18   width=10   height=15   xoffset=-1   yoffset=1    xadvance=11   page=0    chnl=0 
char id=105     x=129  y=34   width=4    height=14   xoffset=-1   yoffset=2    xadvance=5    page=0    chnl=0 
char id=106     x=344  y=0    width=7    height=17   xoffset=-2   yoffset=2    xadvance=7    page=0    chnl=0 
char id=107     x=154  y=18   width=11   height=15   xoffset=-1   yoffset=1    xadvance=10   page=0    chnl=0 
char id=108     x=165  y=18   width=4    height=15   xoffset=-1   yoffset=1    xadvance=5    page=0    chnl=0 
char id=109     x=340  y=62   width=14   height=11   xoffset=0    yoffset=5    xadvance=16   page=0    chnl=0 
char id=110     x=354  y=62   width=10   height=11   xoffset=-1   yoffset=5    xadvance=11   page=0    chnl=0 
char id=111     x=364  y=62   width=10   height=11   xoffset=-1   yoffset=5    xadvance=11   page=0    chnl=0 
char id=112     x=133  y=34   width=10   height=14   xoffset=-1   yoffset=5    xadvance=11   page=0    chnl=0 
char id=113     x=143  y=34   width=10   height=14   xoffset=-1   yoffset=5    xadvance=11   page=0    chnl=0 
char id=114     x=374  y=62   width=7    height=11   xoffset=-1   yoffset=5    xadvance=8    page=0    chnl=0 
char id=115     x=381  y=62   width=9    height=11   xoffset=-1   yoffset=5    xadvance=10   page=0    chnl=0 
char id=116     x=155  y=62   width=8    height=13   xoffset=-1   yoffset=3    xadvance=8    page=0    chnl=0 
char id=117     x=390  y=62   width=10   height=11   xoffset=-1   yoffset=5    xadvance=11   page=0    chnl=0 
char id=118     x=400  y=62   width=12   height=11   xoffset=-2   yoffset=5    xadvance=11   page=0    chnl=0 
char id=119     x=412  y=62   width=13   height=11   xoffset=-2   yoffset=5    xadvance=13   page=0    chnl=0 
char id=120     x=425  y=62   width=11   height=11   xoffset=-2   yoffset=5    xadvance=11   page=0    chnl=0 
char id=121     x=153  y=34   width=12   height=14   xoffset=-2   yoffset=5    xadvance=11   page=0    chnl=0 
char id=122     x=436  y=62   width=9    height=11   xoffset=-1   yoffset=5    xadvance=10   page=0    chnl=0 
char id=123     x=192  y=0    width=9    height=18   xoffset=-1   yoffset=1    xadvance=10   page=0    chnl=0 
char id=124     x=210  y=0    width=4    height=18   xoffset=1    yoffset=1    xadvance=9    page=0    chnl=0 
char id=125     x=201  y=0    width=9    height=18   xoffset=-1   yoffset=1    xadvance=10   page=0    chnl=0 
char id=126     x=427  y=76   width=12   height=7    xoffset=0    yoffset=6    xadvance=14   page=0    chnl=0 
char id=127     x=342  y=34   width=14   height=14   xoffset=1    yoffset=2    xadvance=18   page=0    chnl=0 
char id=163     x=501  y=48   width=10   height=14   xoffset=0    yoffset=2    xadvance=11   page=0    chnl=0 
char id=169     x=495  y=0    width=16   height=16   xoffset=-1   yoffset=2    xadvance=17   page=0    chnl=0 
char id=172     x=391  y=76   width=12   height=8    xoffset=0    yoffset=7    xadvance=14   page=0    chnl=0 
char id=174     x=17   y=18   width=16   height=16   xoffset=-1   yoffset=2    xadvance=17   page=0    chnl=0 
char id=176     x=362  y=76   width=9    height=9    xoffset=-1   yoffset=2    xadvance=10   page=0    chnl=0 
char id=177     x=253  y=62   width=12   height=12   xoffset=0    yoffset=2    xadvance=14   page=0    chnl=0 
char id=178     x=346  y=76   width=8    height=10   xoffset=0    yoffset=2    xadvance=10   page=0    chnl=0 
char id=179     x=354  y=76   width=8    height=10   xoffset=0    yoffset=2    xadvance=10   page=0    chnl=0 
char id=182     x=396  y=0    width=10   height=17   xoffset=-1   yoffset=2    xadvance=11   page=0    chnl=0 
char id=183     x=449  y=76   width=4    height=5    xoffset=1    yoffset=5    xadvance=8    page=0    chnl=0 
char id=188     x=72   y=62   width=15   height=14   xoffset=0    yoffset=2    xadvance=18   page=0    chnl=0 
char id=189     x=87   y=62   width=16   height=14   xoffset=0    yoffset=2    xadvance=18   page=0    chnl=0 
char id=190     x=103  y=62   width=15   height=14   xoffset=0    yoffset=2    xadvance=18   page=0    chnl=0 
char id=192     x=0    y=0    width=12   height=18   xoffset=-2   yoffset=-2   xadvance=12   page=0    chnl=0 
char id=193     x=12   y=0    width=12   height=18   xoffset=-2   yoffset=-2   xadvance=12   page=0    chnl=0 
char id=194     x=24   y=0    width=12   height=18   xoffset=-2   yoffset=-2   xadvance=12   page=0    chnl=0 
char id=196     x=406  y=0    width=12   height=16   xoffset=-2   yoffset=0    xadvance=12   page=0    chnl=0 
char id=199     x=333  y=0    width=11   height=17   xoffset=-1   yoffset=2    xadvance=12   page=0    chnl=0 
char id=200     x=36   y=0    width=10   height=18   xoffset=-1   yoffset=-2   xadvance=11   page=0    chnl=0 
char id=201     x=46   y=0    width=10   height=18   xoffset=-1   yoffset=-2   xadvance=11   page=0    chnl=0 
char id=202     x=56   y=0    width=10   height=18   xoffset=-1   yoffset=-2   xadvance=11   page=0    chnl=0 
char id=203     x=418  y=0    width=10   height=16   xoffset=-1   yoffset=0    xadvance=11   page=0    chnl=0 
char id=204     x=66   y=0    width=7    height=18   xoffset=-1   yoffset=-2   xadvance=9    page=0    chnl=0 
char id=205     x=73   y=0    width=7    height=18   xoffset=0    yoffset=-2   xadvance=9    page=0    chnl=0 
char id=206     x=80   y=0    width=9    height=18   xoffset=-2   yoffset=-2   xadvance=9    page=0    chnl=0 
char id=207     x=428  y=0    width=6    height=16   xoffset=0    yoffset=0    xadvance=9    page=0    chnl=0 
char id=209     x=321  y=0    width=12   height=17   xoffset=-1   yoffset=-1   xadvance=13   page=0    chnl=0 
char id=210     x=89   y=0    width=13   height=18   xoffset=-1   yoffset=-2   xadvance=14   page=0    chnl=0 
char id=211     x=102  y=0    width=13   height=18   xoffset=-1   yoffset=-2   xadvance=14   page=0    chnl=0 
char id=212     x=115  y=0    width=13   height=18   xoffset=-1   yoffset=-2   xadvance=14   page=0    chnl=0 
char id=215     x=265  y=62   width=12   height=12   xoffset=0    yoffset=4    xadvance=14   page=0    chnl=0 
char id=217     x=128  y=0    width=12   height=18   xoffset=-1   yoffset=-2   xadvance=13   page=0    chnl=0 
char id=218     x=140  y=0    width=12   height=18   xoffset=-1   yoffset=-2   xadvance=13   page=0    chnl=0 
char id=219     x=152  y=0    width=12   height=18   xoffset=-1   yoffset=-2   xadvance=13   page=0    chnl=0 
char id=220     x=434  y=0    width=12   height=16   xoffset=-1   yoffset=0    xadvance=13   page=0    chnl=0 
char id=223     x=307  y=18   width=10   height=15   xoffset=-1   yoffset=1    xadvance=11   page=0    chnl=0 
char id=224     x=33   y=18   width=10   height=15   xoffset=-1   yoffset=1    xadvance=11   page=0    chnl=0 
char id=225     x=43   y=18   width=10   height=15   xoffset=-1   yoffset=1    xadvance=11   page=0    chnl=0 
char id=226     x=53   y=18   width=10   height=15   xoffset=-1   yoffset=1    xadvance=11   page=0    chnl=0 
char id=228     x=118  y=62   width=10   height=13   xoffset=-1   yoffset=3    xadvance=11   page=0    chnl=0 
char id=231     x=175  y=34   width=9    height=14   xoffset=-1   yoffset=5    xadvance=10   page=0    chnl=0 
char id=232     x=83   y=18   width=10   height=15   xoffset=-1   yoffset=1    xadvance=11   page=0    chnl=0 
char id=233     x=93   y=18   width=10   height=15   xoffset=-1   yoffset=1    xadvance=11   page=0    chnl=0 
char id=234     x=103  y=18   width=10   height=15   xoffset=-1   yoffset=1    xadvance=11   page=0    chnl=0 
char id=235     x=128  y=62   width=10   height=13   xoffset=-1   yoffset=3    xadvance=11   page=0    chnl=0 
char id=236     x=131  y=18   width=6    height=15   xoffset=-3   yoffset=1    xadvance=5    page=0    chnl=0 
char id=237     x=137  y=18   width=9    height=15   xoffset=-2   yoffset=1    xadvance=5    page=0    chnl=0 
char id=238     x=146  y=18   width=8    height=15   xoffset=-3   yoffset=1    xadvance=5    page=0    chnl=0 
char id=239     x=138  y=62   width=7    height=13   xoffset=-2   yoffset=3    xadvance=5    page=0    chnl=0 
char id=241     x=165  y=34   width=10   height=14   xoffset=-1   yoffset=2    xadvance=11   page=0    chnl=0 
char id=242     x=169  y=18   width=10   height=15   xoffset=-1   yoffset=1    xadvance=11   page=0    chnl=0 
char id=243     x=179  y=18   width=10   height=15   xoffset=-1   yoffset=1    xadvance=11   page=0    chnl=0 
char id=244     x=189  y=18   width=10   height=15   xoffset=-1   yoffset=1    xadvance=11   page=0    chnl=0 
char id=246     x=145  y=62   width=10   height=13   xoffset=-1   yoffset=3    xadvance=11   page=0    chnl=0 
char id=247     x=277  y=62   width=12   height=12   xoffset=0    yoffset=4    xadvance=14   page=0    chnl=0 
char id=249     x=199  y=18   width=10   height=15   xoffset=-1   yoffset=1    xadvance=11   page=0    chnl=0 
char id=250     x=209  y=18   width=10   height=15   xoffset=-1   yoffset=1    xadvance=11   page=0    chnl=0 
char id=251     x=219  y=18   width=10   height=15   xoffset=-1   yoffset=1    xadvance=11   page=0    chnl=0 
char id=252     x=163  y=62   width=10   height=13   xoffset=-1   yoffset=3    xadvance=11   page=0    chnl=0 
char id=268     x=277  y=0    width=11   height=18   xoffset=-1   yoffset=-2   xadvance=12   page=0    chnl=0 
char id=269     x=317  y=18   width=9    height=15   xoffset=-1   yoffset=1    xadvance=10   page=0    chnl=0 
char id=352     x=298  y=0    width=10   height=18   xoffset=-1   yoffset=-2   xadvance=11   page=0    chnl=0 
char id=353     x=335  y=18   width=9    height=15   xoffset=-1   yoffset=1    xadvance=10   page=0    chnl=0 
char id=381     x=288  y=0    width=10   height=18   xoffset=-1   yoffset=-2   xadvance=11   page=0    chnl=0 
char id=382     x=326  y=18   width=9    height=15   xoffset=-1   yoffset=1    xadvance=10   page=0    chnl=0 
char id=913     x=52   y=48   width=12   height=14   xoffset=-2   yoffset=2    xadvance=12   page=0    chnl=0 
char id=914     x=177  y=48   width=11   height=14   xoffset=-1   yoffset=2    xadvance=12   page=0    chnl=0 
char id=915     x=98   y=48   width=10   height=14   xoffset=-1   yoffset=2    xadvance=11   page=0    chnl=0 
char id=916     x=74   y=48   width=12   height=14   xoffset=-2   yoffset=2    xadvance=12   page=0    chnl=0 
char id=917     x=469  y=34   width=10   height=14   xoffset=-1   yoffset=2    xadvance=11   page=0    chnl=0 
char id=918     x=144  y=48   width=10   height=14   xoffset=-1   yoffset=2    xadvance=11   page=0    chnl=0 
char id=919     x=108  y=48   width=12   height=14   xoffset=-1   yoffset=2    xadvance=13   page=0    chnl=0 
char id=920     x=443  y=34   width=13   height=14   xoffset=-1   yoffset=2    xadvance=14   page=0    chnl=0 
char id=921     x=501  y=34   width=6    height=14   xoffset=0    yoffset=2    xadvance=9    page=0    chnl=0 
char id=922     x=120  y=48   width=12   height=14   xoffset=-1   yoffset=2    xadvance=12   page=0    chnl=0 
char id=923     x=132  y=48   width=12   height=14   xoffset=-2   yoffset=2    xadvance=12   page=0    chnl=0 
char id=924     x=200  y=48   width=14   height=14   xoffset=-1   yoffset=2    xadvance=15   page=0    chnl=0 
char id=925     x=188  y=48   width=12   height=14   xoffset=-1   yoffset=2    xadvance=13   page=0    chnl=0 
char id=926     x=166  y=48   width=11   height=14   xoffset=-1   yoffset=2    xadvance=12   page=0    chnl=0 
char id=927     x=27   y=48   width=13   height=14   xoffset=-1   yoffset=2    xadvance=14   page=0    chnl=0 
char id=928     x=40   y=48   width=12   height=14   xoffset=-1   yoffset=2    xadvance=13   page=0    chnl=0 
char id=929     x=479  y=34   width=10   height=14   xoffset=-1   yoffset=2    xadvance=11   page=0    chnl=0 
char id=931     x=64   y=48   width=10   height=14   xoffset=-1   yoffset=2    xadvance=11   page=0    chnl=0 
char id=932     x=489  y=34   width=12   height=14   xoffset=-1   yoffset=2    xadvance=13   page=0    chnl=0 
char id=933     x=14   y=48   width=13   height=14   xoffset=-2   yoffset=2    xadvance=13   page=0    chnl=0 
char id=934     x=86   y=48   width=12   height=14   xoffset=-1   yoffset=2    xadvance=13   page=0    chnl=0 
char id=935     x=154  y=48   width=12   height=14   xoffset=-2   yoffset=2    xadvance=12   page=0    chnl=0 
char id=936     x=0    y=48   width=14   height=14   xoffset=-1   yoffset=2    xadvance=15   page=0    chnl=0 
char id=937     x=456  y=34   width=13   height=14   xoffset=-1   yoffset=2    xadvance=14   page=0    chnl=0 
char id=945     x=0    y=76   width=10   height=11   xoffset=-1   yoffset=5    xadvance=11   page=0    chnl=0 
char id=946     x=243  y=0    width=10   height=18   xoffset=-1   yoffset=1    xadvance=11   page=0    chnl=0 
char id=947     x=390  y=34   width=12   height=14   xoffset=-2   yoffset=5    xadvance=11   page=0    chnl=0 
char id=948     x=239  y=18   width=10   height=15   xoffset=-1   yoffset=1    xadvance=11   page=0    chnl=0 
char id=949     x=457  y=62   width=9    height=11   xoffset=-1   yoffset=5    xadvance=10   page=0    chnl=0 
char id=950     x=223  y=0    width=10   height=18   xoffset=-1   yoffset=1    xadvance=9    page=0    chnl=0 
char id=951     x=402  y=34   width=10   height=14   xoffset=-1   yoffset=5    xadvance=11   page=0    chnl=0 
char id=952     x=229  y=18   width=10   height=15   xoffset=-1   yoffset=1    xadvance=11   page=0    chnl=0 
char id=953     x=486  y=62   width=4    height=11   xoffset=-1   yoffset=5    xadvance=5    page=0    chnl=0 
char id=954     x=22   y=76   width=10   height=11   xoffset=-1   yoffset=5    xadvance=10   page=0    chnl=0 
char id=955     x=249  y=18   width=11   height=15   xoffset=-2   yoffset=1    xadvance=10   page=0    chnl=0 
char id=956     x=432  y=34   width=11   height=14   xoffset=-1   yoffset=5    xadvance=12   page=0    chnl=0 
char id=957     x=32   y=76   width=12   height=11   xoffset=-2   yoffset=5    xadvance=11   page=0    chnl=0 
char id=958     x=233  y=0    width=10   height=18   xoffset=-1   yoffset=1    xadvance=10   page=0    chnl=0 
char id=959     x=490  y=62   width=10   height=11   xoffset=-1   yoffset=5    xadvance=11   page=0    chnl=0 
char id=960     x=500  y=62   width=10   height=11   xoffset=-1   yoffset=5    xadvance=11   page=0    chnl=0 
char id=961     x=356  y=34   width=10   height=14   xoffset=-1   yoffset=5    xadvance=11   page=0    chnl=0 
char id=962     x=412  y=34   width=9    height=14   xoffset=-1   yoffset=5    xadvance=9    page=0    chnl=0 
char id=963     x=10   y=76   width=12   height=11   xoffset=-1   yoffset=5    xadvance=12   page=0    chnl=0 
char id=964     x=466  y=62   width=10   height=11   xoffset=-1   yoffset=5    xadvance=10   page=0    chnl=0 
char id=965     x=476  y=62   width=10   height=11   xoffset=-1   yoffset=5    xadvance=11   page=0    chnl=0 
char id=966     x=378  y=34   width=12   height=14   xoffset=0    yoffset=5    xadvance=14   page=0    chnl=0 
char id=967     x=421  y=34   width=11   height=14   xoffset=-2   yoffset=5    xadvance=11   page=0    chnl=0 
char id=968     x=366  y=34   width=12   height=14   xoffset=-1   yoffset=5    xadvance=13   page=0    chnl=0 
char id=969     x=445  y=62   width=12   height=11   xoffset=-1   yoffset=5    xadvance=13   page=0    chnl=0 
char id=1025    x=473  y=0    width=10   height=16   xoffset=-1   yoffset=0    xadvance=11   page=0    chnl=0 
char id=1040    x=214  y=48   width=12   height=14   xoffset=-2   yoffset=2    xadvance=12   page=0    chnl=0 
char id=1041    x=226  y=48   width=11   height=14   xoffset=-1   yoffset=2    xadvance=12   page=0    chnl=0 
char id=1042    x=237  y=48   width=11   height=14   xoffset=-1   yoffset=2    xadvance=12   page=0    chnl=0 
char id=1043    x=248  y=48   width=10   height=14   xoffset=-1   yoffset=2    xadvance=11   page=0    chnl=0 
char id=1044    x=461  y=0    width=12   height=16   xoffset=-1   yoffset=2    xadvance=13   page=0    chnl=0 
char id=1045    x=258  y=48   width=10   height=14   xoffset=-1   yoffset=2    xadvance=11   page=0    chnl=0 
char id=1046    x=268  y=48   width=17   height=14   xoffset=-2   yoffset=2    xadvance=17   page=0    chnl=0 
char id=1047    x=285  y=48   width=10   height=14   xoffset=-1   yoffset=2    xadvance=11   page=0    chnl=0 
char id=1048    x=295  y=48   width=12   height=14   xoffset=-1   yoffset=2    xadvance=13   page=0    chnl=0 
char id=1049    x=371  y=0    width=12   height=17   xoffset=-1   yoffset=-1   xadvance=13   page=0    chnl=0 
char id=1050    x=307  y=48   width=11   height=14   xoffset=-1   yoffset=2    xadvance=12   page=0    chnl=0 
char id=1051    x=318  y=48   width=12   height=14   xoffset=-1   yoffset=2    xadvance=13   page=0    chnl=0 
char id=1052    x=330  y=48   width=14   height=14   xoffset=-1   yoffset=2    xadvance=15   page=0    chnl=0 
char id=1053    x=344  y=48   width=12   height=14   xoffset=-1   yoffset=2    xadvance=13   page=0    chnl=0 
char id=1054    x=356  y=48   width=13   height=14   xoffset=-1   yoffset=2    xadvance=14   page=0    chnl=0 
char id=1055    x=369  y=48   width=12   height=14   xoffset=-1   yoffset=2    xadvance=13   page=0    chnl=0 
char id=1056    x=381  y=48   width=10   height=14   xoffset=-1   yoffset=2    xadvance=11   page=0    chnl=0 
char id=1057    x=401  y=48   width=11   height=14   xoffset=-1   yoffset=2    xadvance=12   page=0    chnl=0 
char id=1058    x=412  y=48   width=12   height=14   xoffset=-1   yoffset=2    xadvance=13   page=0    chnl=0 
char id=1059    x=424  y=48   width=13   height=14   xoffset=-2   yoffset=2    xadvance=12   page=0    chnl=0 
char id=1060    x=449  y=48   width=12   height=14   xoffset=-1   yoffset=2    xadvance=13   page=0    chnl=0 
char id=1061    x=461  y=48   width=12   height=14   xoffset=-2   yoffset=2    xadvance=12   page=0    chnl=0 
char id=1062    x=483  y=0    width=12   height=16   xoffset=-1   yoffset=2    xadvance=13   page=0    chnl=0 
char id=1063    x=473  y=48   width=12   height=14   xoffset=-1   yoffset=2    xadvance=13   page=0    chnl=0 
char id=1064    x=485  y=48   width=16   height=14   xoffset=-1   yoffset=2    xadvance=17   page=0    chnl=0 
char id=1065    x=0    y=18   width=17   height=16   xoffset=-1   yoffset=2    xadvance=18   page=0    chnl=0 
char id=1066    x=0    y=62   width=12   height=14   xoffset=-1   yoffset=2    xadvance=13   page=0    chnl=0 
char id=1067    x=12   y=62   width=14   height=14   xoffset=-1   yoffset=2    xadvance=15   page=0    chnl=0 
char id=1068    x=26   y=62   width=11   height=14   xoffset=-1   yoffset=2    xadvance=12   page=0    chnl=0 
char id=1069    x=37   y=62   width=11   height=14   xoffset=-1   yoffset=2    xadvance=12   page=0    chnl=0 
char id=1070    x=280  y=18   width=16   height=15   xoffset=-1   yoffset=2    xadvance=17   page=0    chnl=0 
char id=1071    x=48   y=62   width=12   height=14   xoffset=-2   yoffset=2    xadvance=12   page=0    chnl=0 
char id=1072    x=44   y=76   width=10   height=11   xoffset=-1   yoffset=5    xadvance=11   page=0    chnl=0 
char id=1073    x=260  y=18   width=10   height=15   xoffset=-1   yoffset=1    xadvance=11   page=0    chnl=0 
char id=1074    x=54   y=76   width=10   height=11   xoffset=-1   yoffset=5    xadvance=11   page=0    chnl=0 
char id=1075    x=64   y=76   width=8    height=11   xoffset=-1   yoffset=5    xadvance=9    page=0    chnl=0 
char id=1076    x=195  y=62   width=10   height=13   xoffset=-1   yoffset=5    xadvance=11   page=0    chnl=0 
char id=1077    x=72   y=76   width=10   height=11   xoffset=-1   yoffset=5    xadvance=11   page=0    chnl=0 
char id=1078    x=82   y=76   width=15   height=11   xoffset=-2   yoffset=5    xadvance=15   page=0    chnl=0 
char id=1079    x=97   y=76   width=9    height=11   xoffset=-1   yoffset=5    xadvance=10   page=0    chnl=0 
char id=1080    x=106  y=76   width=10   height=11   xoffset=-1   yoffset=5    xadvance=11   page=0    chnl=0 
char id=1081    x=270  y=18   width=10   height=15   xoffset=-1   yoffset=1    xadvance=11   page=0    chnl=0 
char id=1082    x=116  y=76   width=10   height=11   xoffset=-1   yoffset=5    xadvance=10   page=0    chnl=0 
char id=1083    x=126  y=76   width=10   height=11   xoffset=-1   yoffset=5    xadvance=11   page=0    chnl=0 
char id=1084    x=136  y=76   width=12   height=11   xoffset=-1   yoffset=5    xadvance=13   page=0    chnl=0 
char id=1085    x=148  y=76   width=10   height=11   xoffset=-1   yoffset=5    xadvance=11   page=0    chnl=0 
char id=1086    x=158  y=76   width=10   height=11   xoffset=-1   yoffset=5    xadvance=11   page=0    chnl=0 
char id=1087    x=168  y=76   width=10   height=11   xoffset=-1   yoffset=5    xadvance=11   page=0    chnl=0 
char id=1088    x=391  y=48   width=10   height=14   xoffset=-1   yoffset=5    xadvance=11   page=0    chnl=0 
char id=1089    x=178  y=76   width=9    height=11   xoffset=-1   yoffset=5    xadvance=10   page=0    chnl=0 
char id=1090    x=187  y=76   width=10   height=11   xoffset=-1   yoffset=5    xadvance=11   page=0    chnl=0 
char id=1091    x=437  y=48   width=12   height=14   xoffset=-2   yoffset=5    xadvance=11   page=0    chnl=0 
char id=1092    x=253  y=0    width=14   height=18   xoffset=-1   yoffset=1    xadvance=15   page=0    chnl=0 
char id=1093    x=197  y=76   width=11   height=11   xoffset=-2   yoffset=5    xadvance=11   page=0    chnl=0 
char id=1094    x=215  y=62   width=11   height=13   xoffset=-1   yoffset=5    xadvance=12   page=0    chnl=0 
char id=1095    x=208  y=76   width=9    height=11   xoffset=0    yoffset=5    xadvance=11   page=0    chnl=0 
char id=1096    x=217  y=76   width=14   height=11   xoffset=-1   yoffset=5    xadvance=15   page=0    chnl=0 
char id=1097    x=226  y=62   width=15   height=13   xoffset=-1   yoffset=5    xadvance=16   page=0    chnl=0 
char id=1098    x=231  y=76   width=11   height=11   xoffset=-1   yoffset=5    xadvance=12   page=0    chnl=0 
char id=1099    x=242  y=76   width=12   height=11   xoffset=-1   yoffset=5    xadvance=13   page=0    chnl=0 
char id=1100    x=254  y=76   width=10   height=11   xoffset=-1   yoffset=5    xadvance=11   page=0    chnl=0 
char id=1101    x=264  y=76   width=9    height=11   xoffset=-1   yoffset=5    xadvance=10   page=0    chnl=0 
char id=1102    x=273  y=76   width=13   height=11   xoffset=-1   yoffset=5    xadvance=14   page=0    chnl=0 
char id=1103    x=286  y=76   width=11   height=11   xoffset=-2   yoffset=5    xadvance=11   page=0    chnl=0 
char id=1105    x=205  y=62   width=10   height=13   xoffset=-1   yoffset=3    xadvance=11   page=0    chnl=0 
char id=8364    x=60   y=62   width=12   height=14   xoffset=-3   yoffset=2    xadvance=11   page=0    chnl=0 
char id=8721    x=296  y=18   width=11   height=15   xoffset=0    yoffset=2    xadvance=13   page=0    chnl=0 
char id=8730    x=383  y=0    width=13   height=17   xoffset=0    yoffset=0    xadvance=14   page=0    chnl=0 
char id=8734    x=319  y=76   width=15   height=10   xoffset=0    yoffset=5    xadvance=17   page=0    chnl=0 
char id=8747    x=267  y=0    width=10   height=18   xoffset=-1   yoffset=1    xadvance=11   page=0    chnl=0 
char id=8776    x=334  y=76   width=12   height=10   xoffset=-1   yoffset=5    xadvance=14   page=0    chnl=0 
char id=8800    x=297  y=76   width=11   height=11   xoffset=0    yoffset=4    xadvance=14   page=0    chnl=0 
char id=8804    x=289  y=62   width=11   height=12   xoffset=0    yoffset=4    xadvance=14   page=0    chnl=0 
char id=8805    x=300  y=62   width=11   height=12   xoffset=1    yoffset=4    xadvance=14   page=0    chnl=0 
kernings count=108
kerning first=76 second=89 amount=-1
kerning first=102 second=34 amount=1
kerning first=86 second=97 amount=-1
kerning first=102 second=41 amount=1
kerning first=118 second=44 amount=-1
kerning first=46 second=45 amount=-1
kerning first=70 second=46 amount=-2
kerning first=107 second=45 amount=-1
kerning first=76 second=39 amount=-1
kerning first=65 second=89 amount=-1
kerning first=44 second=41 amount=-1
kerning first=86 second=58 amount=-1
kerning first=102 second=63 amount=1
kerning first=84 second=65 amount=-1
kerning first=45 second=74 amount=-1
kerning first=89 second=103 amount=-1
kerning first=76 second=86 amount=-1
kerning first=76 second=87 amount=-1
kerning first=45 second=89 amount=-1
kerning first=102 second=92 amount=1
kerning first=44 second=93 amount=-1
kerning first=102 second=44 amount=-1
kerning first=89 second=97 amount=-1
kerning first=84 second=99 amount=-2
kerning first=89 second=100 amount=-1
kerning first=86 second=101 amount=-1
kerning first=84 second=103 amount=-1
kerning first=89 second=109 amount=-1
kerning first=89 second=110 amount=-1
kerning first=86 second=111 amount=-1
kerning first=89 second=112 amount=-1
kerning first=89 second=113 amount=-1
kerning first=84 second=114 amount=-1
kerning first=89 second=115 amount=-1
kerning first=89 second=117 amount=-1
kerning first=76 second=118 amount=-1
kerning first=88 second=45 amount=-1
kerning first=84 second=121 amount=-1
kerning first=44 second=125 amount=-1
kerning first=80 second=44 amount=-2
kerning first=84 second=46 amount=-2
kerning first=55 second=44 amount=-1
kerning first=84 second=89 amount=-1
kerning first=89 second=101 amount=-1
kerning first=70 second=97 amount=-1
kerning first=46 second=41 amount=-1
kerning first=76 second=45 amount=-1
kerning first=84 second=97 amount=-2
kerning first=89 second=46 amount=-2
kerning first=89 second=111 amount=-1
kerning first=89 second=59 amount=-1
kerning first=87 second=46 amount=-2
kerning first=114 second=46 amount=-2
kerning first=46 second=93 amount=-1
kerning first=84 second=59 amount=-1
kerning first=87 second=97 amount=-1
kerning first=102 second=39 amount=1
kerning first=86 second=44 amount=-2
kerning first=84 second=118 amount=-1
kerning first=84 second=122 amount=-1
kerning first=45 second=84 amount=-1
kerning first=39 second=65 amount=-1
kerning first=82 second=45 amount=-1
kerning first=89 second=44 amount=-2
kerning first=114 second=44 amount=-2
kerning first=65 second=84 amount=-1
kerning first=89 second=65 amount=-1
kerning first=55 second=46 amount=-1
kerning first=84 second=111 amount=-2
kerning first=45 second=88 amount=-1
kerning first=89 second=45 amount=-1
kerning first=80 second=46 amount=-2
kerning first=70 second=44 amount=-2
kerning first=87 second=111 amount=-1
kerning first=102 second=93 amount=1
kerning first=84 second=84 amount=-1
kerning first=87 second=101 amount=-1
kerning first=70 second=65 amount=-1
kerning first=84 second=44 amount=-2
kerning first=89 second=58 amount=-1
kerning first=86 second=59 amount=-1
kerning first=80 second=74 amount=-1
kerning first=87 second=59 amount=-1
kerning first=87 second=44 amount=-2
kerning first=102 second=46 amount=-1
kerning first=101 second=84 amount=-1
kerning first=89 second=118 amount=-1
kerning first=84 second=45 amount=-1
kerning first=76 second=74 amount=1
kerning first=76 second=84 amount=-1
kerning first=118 second=46 amount=-1
kerning first=121 second=44 amount=-1
kerning first=86 second=46 amount=-2
kerning first=102 second=238 amount=1
kerning first=102 second=125 amount=1
kerning first=84 second=117 amount=-1
kerning first=87 second=58 amount=-1
kerning first=46 second=125 amount=-1
kerning first=84 second=115 amount=-1
kerning first=89 second=114 amount=-1
kerning first=121 second=46 amount=-1
kerning first=99 second=84 amount=-1
kerning first=76 second=121 amount=-1
kerning first=84 second=119 amount=-1
kerning first=84 second=101 amount=-2
kerning first=84 second=58 amount=-1
kerning first=46 second=44 amount=-1
kerning first=75 second=45 amount=-1
