info face="Tahoma" size=23 bold=0 italic=0 charset="" unicode=0 stretchH=100 smooth=1 aa=1 padding=1,1,1,1 spacing=0,0
common lineHeight=30 base=23 scaleW=512 scaleH=256 pages=1 packed=0
page id=0 file="ui-23.png"
chars count=286
char id=10      x=0    y=0    width=0    height=0    xoffset=-1   yoffset=0    xadvance=2    page=0    chnl=0 
char id=32      x=0    y=0    width=0    height=0    xoffset=-1   yoffset=0    xadvance=9    page=0    chnl=0 
char id=33      x=260  y=68   width=4    height=19   xoffset=2    yoffset=5    xadvance=10   page=0    chnl=0 
char id=34      x=117  y=140  width=8    height=8    xoffset=0    yoffset=4    xadvance=11   page=0    chnl=0 
char id=35      x=304  y=68   width=17   height=19   xoffset=0    yoffset=5    xadvance=19   page=0    chnl=0 
char id=36      x=424  y=0    width=13   height=24   xoffset=0    yoffset=4    xadvance=15   page=0    chnl=0 
char id=37      x=282  y=68   width=22   height=19   xoffset=0    yoffset=5    xadvance=24   page=0    chnl=0 
char id=38      x=321  y=68   width=18   height=19   xoffset=0    yoffset=5    xadvance=18   page=0    chnl=0 
char id=39      x=125  y=140  width=4    height=8    xoffset=0    yoffset=4    xadvance=7    page=0    chnl=0 
char id=40      x=200  y=0    width=9    height=25   xoffset=0    yoffset=4    xadvance=11   page=0    chnl=0 
char id=41      x=209  y=0    width=9    height=25   xoffset=0    yoffset=4    xadvance=11   page=0    chnl=0 
char id=42      x=497  y=125  width=12   height=12   xoffset=1    yoffset=4    xadvance=15   page=0    chnl=0 
char id=43      x=325  y=106  width=16   height=16   xoffset=0    yoffset=8    xadvance=19   page=0    chnl=0 
char id=44      x=96   y=140  width=7    height=9    xoffset=0    yoffset=19   xadvance=9    page=0    chnl=0 
char id=45      x=162  y=140  width=8    height=4    xoffset=0    yoffset=14   xadvance=10   page=0    chnl=0 
char id=46      x=152  y=140  width=5    height=5    xoffset=1    yoffset=19   xadvance=9    page=0    chnl=0 
char id=47      x=404  y=0    width=10   height=24   xoffset=-1   yoffset=4    xadvance=11   page=0    chnl=0 
char id=48      x=247  y=68   width=13   height=19   xoffset=0    yoffset=5    xadvance=15   page=0    chnl=0 
char id=49      x=134  y=68   width=10   height=19   xoffset=2    yoffset=5    xadvance=15   page=0    chnl=0 
char id=50      x=144  y=68   width=13   height=19   xoffset=0    yoffset=5    xadvance=15   page=0    chnl=0 
char id=51      x=157  y=68   width=12   height=19   xoffset=0    yoffset=5    xadvance=15   page=0    chnl=0 
char id=52      x=169  y=68   width=14   height=19   xoffset=-1   yoffset=5    xadvance=15   page=0    chnl=0 
char id=53      x=183  y=68   width=12   height=19   xoffset=0    yoffset=5    xadvance=15   page=0    chnl=0 
char id=54      x=195  y=68   width=13   height=19   xoffset=0    yoffset=5    xadvance=15   page=0    chnl=0 
char id=55      x=208  y=68   width=13   height=19   xoffset=0    yoffset=5    xadvance=15   page=0    chnl=0 
char id=56      x=221  y=68   width=13   height=19   xoffset=0    yoffset=5    xadvance=15   page=0    chnl=0 
char id=57      x=234  y=68   width=13   height=19   xoffset=0    yoffset=5    xadvance=15   page=0    chnl=0 
char id=58      x=504  y=106  width=5    height=15   xoffset=2    yoffset=9    xadvance=10   page=0    chnl=0 
char id=59      x=275  y=68   width=7    height=19   xoffset=1    yoffset=9    xadvance=10   page=0    chnl=0 
char id=60      x=10   y=125  width=14   height=15   xoffset=1    yoffset=8    xadvance=19   page=0    chnl=0 
char id=61      x=103  y=140  width=14   height=9    xoffset=1    yoffset=11   xadvance=19   page=0    chnl=0 
char id=62      x=24   y=125  width=14   height=15   xoffset=1    yoffset=8    xadvance=19   page=0    chnl=0 
char id=63      x=264  y=68   width=11   height=19   xoffset=0    yoffset=5    xadvance=13   page=0    chnl=0 
char id=64      x=109  y=25   width=21   height=22   xoffset=0    yoffset=5    xadvance=23   page=0    chnl=0 
char id=65      x=222  y=48   width=16   height=19   xoffset=-1   yoffset=5    xadvance=16   page=0    chnl=0 
char id=66      x=238  y=48   width=13   height=19   xoffset=1    yoffset=5    xadvance=16   page=0    chnl=0 
char id=67      x=251  y=48   width=14   height=19   xoffset=0    yoffset=5    xadvance=16   page=0    chnl=0 
char id=68      x=265  y=48   width=15   height=19   xoffset=1    yoffset=5    xadvance=18   page=0    chnl=0 
char id=69      x=280  y=48   width=12   height=19   xoffset=1    yoffset=5    xadvance=15   page=0    chnl=0 
char id=70      x=292  y=48   width=12   height=19   xoffset=1    yoffset=5    xadvance=14   page=0    chnl=0 
char id=71      x=304  y=48   width=15   height=19   xoffset=0    yoffset=5    xadvance=17   page=0    chnl=0 
char id=72      x=319  y=48   width=14   height=19   xoffset=1    yoffset=5    xadvance=18   page=0    chnl=0 
char id=73      x=333  y=48   width=8    height=19   xoffset=0    yoffset=5    xadvance=11   page=0    chnl=0 
char id=74      x=341  y=48   width=10   height=19   xoffset=-1   yoffset=5    xadvance=12   page=0    chnl=0 
char id=75      x=351  y=48   width=14   height=19   xoffset=1    yoffset=5    xadvance=16   page=0    chnl=0 
char id=76      x=365  y=48   width=11   height=19   xoffset=1    yoffset=5    xadvance=13   page=0    chnl=0 
char id=77      x=376  y=48   width=16   height=19   xoffset=1    yoffset=5    xadvance=20   page=0    chnl=0 
char id=78      x=392  y=48   width=13   height=19   xoffset=1    yoffset=5    xadvance=17   page=0    chnl=0 
char id=79      x=405  y=48   width=16   height=19   xoffset=0    yoffset=5    xadvance=18   page=0    chnl=0 
char id=80      x=421  y=48   width=13   height=19   xoffset=1    yoffset=5    xadvance=15   page=0    chnl=0 
char id=81      x=0    y=25   width=16   height=23   xoffset=0    yoffset=5    xadvance=18   page=0    chnl=0 
char id=82      x=434  y=48   width=14   height=19   xoffset=1    yoffset=5    xadvance=16   page=0    chnl=0 
char id=83      x=448  y=48   width=13   height=19   xoffset=0    yoffset=5    xadvance=15   page=0    chnl=0 
char id=84      x=461  y=48   width=16   height=19   xoffset=-2   yoffset=5    xadvance=15   page=0    chnl=0 
char id=85      x=477  y=48   width=14   height=19   xoffset=1    yoffset=5    xadvance=17   page=0    chnl=0 
char id=86      x=491  y=48   width=16   height=19   xoffset=-1   yoffset=5    xadvance=16   page=0    chnl=0 
char id=87      x=0    y=68   width=23   height=19   xoffset=-1   yoffset=5    xadvance=23   page=0    chnl=0 
char id=88      x=23   y=68   width=15   height=19   xoffset=-1   yoffset=5    xadvance=15   page=0    chnl=0 
char id=89      x=38   y=68   width=16   height=19   xoffset=-2   yoffset=5    xadvance=15   page=0    chnl=0 
char id=90      x=54   y=68   width=13   height=19   xoffset=0    yoffset=5    xadvance=15   page=0    chnl=0 
char id=91      x=360  y=0    width=8    height=24   xoffset=1    yoffset=4    xadvance=11   page=0    chnl=0 
char id=92      x=414  y=0    width=10   height=24   xoffset=0    yoffset=4    xadvance=11   page=0    chnl=0 
char id=93      x=368  y=0    width=8    height=24   xoffset=0    yoffset=4    xadvance=11   page=0    chnl=0 
char id=94      x=54   y=140  width=16   height=11   xoffset=1    yoffset=5    xadvance=19   page=0    chnl=0 
char id=95      x=170  y=140  width=15   height=3    xoffset=-1   yoffset=24   xadvance=15   page=0    chnl=0 
char id=96      x=145  y=140  width=7    height=6    xoffset=2    yoffset=3    xadvance=15   page=0    chnl=0 
char id=97      x=358  y=106  width=12   height=15   xoffset=0    yoffset=9    xadvance=14   page=0    chnl=0 
char id=98      x=385  y=25   width=13   height=20   xoffset=1    yoffset=4    xadvance=15   page=0    chnl=0 
char id=99      x=370  y=106  width=11   height=15   xoffset=0    yoffset=9    xadvance=13   page=0    chnl=0 
char id=100     x=398  y=25   width=13   height=20   xoffset=0    yoffset=4    xadvance=15   page=0    chnl=0 
char id=101     x=381  y=106  width=13   height=15   xoffset=0    yoffset=9    xadvance=14   page=0    chnl=0 
char id=102     x=411  y=25   width=10   height=20   xoffset=0    yoffset=4    xadvance=9    page=0    chnl=0 
char id=103     x=421  y=25   width=13   height=20   xoffset=0    yoffset=9    xadvance=15   page=0    chnl=0 
char id=104     x=434  y=25   width=12   height=20   xoffset=1    yoffset=4    xadvance=15   page=0    chnl=0 
char id=105     x=507  y=48   width=4    height=19   xoffset=1    yoffset=5    xadvance=7    page=0    chnl=0 
char id=106     x=351  y=0    width=9    height=24   xoffset=-2   yoffset=5    xadvance=8    page=0    chnl=0 
char id=107     x=446  y=25   width=11   height=20   xoffset=1    yoffset=4    xadvance=13   page=0    chnl=0 
char id=108     x=457  y=25   width=4    height=20   xoffset=1    yoffset=4    xadvance=7    page=0    chnl=0 
char id=109     x=394  y=106  width=18   height=15   xoffset=1    yoffset=9    xadvance=21   page=0    chnl=0 
char id=110     x=412  y=106  width=12   height=15   xoffset=1    yoffset=9    xadvance=15   page=0    chnl=0 
char id=111     x=424  y=106  width=13   height=15   xoffset=0    yoffset=9    xadvance=14   page=0    chnl=0 
char id=112     x=461  y=25   width=13   height=20   xoffset=1    yoffset=9    xadvance=15   page=0    chnl=0 
char id=113     x=474  y=25   width=13   height=20   xoffset=0    yoffset=9    xadvance=15   page=0    chnl=0 
char id=114     x=503  y=68   width=8    height=15   xoffset=1    yoffset=9    xadvance=10   page=0    chnl=0 
char id=115     x=437  y=106  width=11   height=15   xoffset=0    yoffset=9    xadvance=12   page=0    chnl=0 
char id=116     x=113  y=68   width=9    height=19   xoffset=0    yoffset=5    xadvance=10   page=0    chnl=0 
char id=117     x=448  y=106  width=12   height=15   xoffset=1    yoffset=9    xadvance=15   page=0    chnl=0 
char id=118     x=460  y=106  width=12   height=15   xoffset=0    yoffset=9    xadvance=13   page=0    chnl=0 
char id=119     x=472  y=106  width=19   height=15   xoffset=-1   yoffset=9    xadvance=19   page=0    chnl=0 
char id=120     x=491  y=106  width=13   height=15   xoffset=-1   yoffset=9    xadvance=13   page=0    chnl=0 
char id=121     x=487  y=25   width=12   height=20   xoffset=0    yoffset=9    xadvance=13   page=0    chnl=0 
char id=122     x=0    y=125  width=10   height=15   xoffset=0    yoffset=9    xadvance=12   page=0    chnl=0 
char id=123     x=376  y=0    width=12   height=24   xoffset=0    yoffset=4    xadvance=13   page=0    chnl=0 
char id=124     x=400  y=0    width=4    height=24   xoffset=2    yoffset=4    xadvance=11   page=0    chnl=0 
char id=125     x=388  y=0    width=12   height=24   xoffset=-1   yoffset=4    xadvance=13   page=0    chnl=0 
char id=126     x=129  y=140  width=16   height=8    xoffset=1    yoffset=12   xadvance=19   page=0    chnl=0 
char id=127     x=339  y=68   width=19   height=19   xoffset=2    yoffset=5    xadvance=25   page=0    chnl=0 
char id=163     x=132  y=106  width=13   height=19   xoffset=0    yoffset=5    xadvance=15   page=0    chnl=0 
char id=169     x=310  y=25   width=21   height=21   xoffset=0    yoffset=5    xadvance=23   page=0    chnl=0 
char id=172     x=81   y=140  width=15   height=10   xoffset=1    yoffset=13   xadvance=19   page=0    chnl=0 
char id=174     x=331  y=25   width=21   height=21   xoffset=0    yoffset=5    xadvance=23   page=0    chnl=0 
char id=176     x=70   y=140  width=11   height=11   xoffset=0    yoffset=5    xadvance=13   page=0    chnl=0 
char id=177     x=295  y=106  width=16   height=17   xoffset=0    yoffset=6    xadvance=19   page=0    chnl=0 
char id=178     x=35   y=140  width=10   height=12   xoffset=1    yoffset=5    xadvance=13   page=0    chnl=0 
char id=179     x=45   y=140  width=9    height=12   xoffset=1    yoffset=5    xadvance=13   page=0    chnl=0 
char id=182     x=96   y=25   width=13   height=23   xoffset=0    yoffset=5    xadvance=15   page=0    chnl=0 
char id=183     x=157  y=140  width=5    height=5    xoffset=2    yoffset=9    xadvance=10   page=0    chnl=0 
char id=188     x=159  y=106  width=21   height=19   xoffset=1    yoffset=5    xadvance=25   page=0    chnl=0 
char id=189     x=180  y=106  width=22   height=19   xoffset=1    yoffset=5    xadvance=25   page=0    chnl=0 
char id=190     x=202  y=106  width=22   height=19   xoffset=1    yoffset=5    xadvance=25   page=0    chnl=0 
char id=192     x=0    y=0    width=16   height=25   xoffset=-1   yoffset=-1   xadvance=16   page=0    chnl=0 
char id=193     x=16   y=0    width=16   height=25   xoffset=-1   yoffset=-1   xadvance=16   page=0    chnl=0 
char id=194     x=32   y=0    width=16   height=25   xoffset=-1   yoffset=-1   xadvance=16   page=0    chnl=0 
char id=196     x=468  y=0    width=16   height=23   xoffset=-1   yoffset=1    xadvance=16   page=0    chnl=0 
char id=199     x=337  y=0    width=14   height=24   xoffset=0    yoffset=5    xadvance=16   page=0    chnl=0 
char id=200     x=48   y=0    width=12   height=25   xoffset=1    yoffset=-1   xadvance=15   page=0    chnl=0 
char id=201     x=60   y=0    width=12   height=25   xoffset=1    yoffset=-1   xadvance=15   page=0    chnl=0 
char id=202     x=72   y=0    width=12   height=25   xoffset=1    yoffset=-1   xadvance=15   page=0    chnl=0 
char id=203     x=484  y=0    width=12   height=23   xoffset=1    yoffset=1    xadvance=15   page=0    chnl=0 
char id=204     x=84   y=0    width=8    height=25   xoffset=0    yoffset=-1   xadvance=11   page=0    chnl=0 
char id=205     x=92   y=0    width=8    height=25   xoffset=0    yoffset=-1   xadvance=11   page=0    chnl=0 
char id=206     x=100  y=0    width=10   height=25   xoffset=-1   yoffset=-1   xadvance=11   page=0    chnl=0 
char id=207     x=496  y=0    width=8    height=23   xoffset=0    yoffset=1    xadvance=11   page=0    chnl=0 
char id=209     x=324  y=0    width=13   height=24   xoffset=1    yoffset=0    xadvance=17   page=0    chnl=0 
char id=210     x=110  y=0    width=16   height=25   xoffset=0    yoffset=-1   xadvance=18   page=0    chnl=0 
char id=211     x=126  y=0    width=16   height=25   xoffset=0    yoffset=-1   xadvance=18   page=0    chnl=0 
char id=212     x=142  y=0    width=16   height=25   xoffset=0    yoffset=-1   xadvance=18   page=0    chnl=0 
char id=215     x=482  y=125  width=15   height=15   xoffset=1    yoffset=8    xadvance=19   page=0    chnl=0 
char id=217     x=158  y=0    width=14   height=25   xoffset=1    yoffset=-1   xadvance=17   page=0    chnl=0 
char id=218     x=172  y=0    width=14   height=25   xoffset=1    yoffset=-1   xadvance=17   page=0    chnl=0 
char id=219     x=186  y=0    width=14   height=25   xoffset=1    yoffset=-1   xadvance=17   page=0    chnl=0 
char id=220     x=16   y=25   width=14   height=23   xoffset=1    yoffset=1    xadvance=17   page=0    chnl=0 
char id=223     x=209  y=48   width=13   height=20   xoffset=1    yoffset=4    xadvance=15   page=0    chnl=0 
char id=224     x=130  y=25   width=12   height=21   xoffset=0    yoffset=3    xadvance=14   page=0    chnl=0 
char id=225     x=142  y=25   width=12   height=21   xoffset=0    yoffset=3    xadvance=14   page=0    chnl=0 
char id=226     x=154  y=25   width=12   height=21   xoffset=0    yoffset=3    xadvance=14   page=0    chnl=0 
char id=228     x=67   y=68   width=12   height=19   xoffset=0    yoffset=5    xadvance=14   page=0    chnl=0 
char id=231     x=0    y=48   width=11   height=20   xoffset=0    yoffset=9    xadvance=13   page=0    chnl=0 
char id=232     x=166  y=25   width=13   height=21   xoffset=0    yoffset=3    xadvance=14   page=0    chnl=0 
char id=233     x=179  y=25   width=13   height=21   xoffset=0    yoffset=3    xadvance=14   page=0    chnl=0 
char id=234     x=192  y=25   width=13   height=21   xoffset=0    yoffset=3    xadvance=14   page=0    chnl=0 
char id=235     x=79   y=68   width=13   height=19   xoffset=0    yoffset=5    xadvance=14   page=0    chnl=0 
char id=236     x=504  y=0    width=7    height=21   xoffset=-1   yoffset=3    xadvance=7    page=0    chnl=0 
char id=237     x=205  y=25   width=7    height=21   xoffset=1    yoffset=3    xadvance=7    page=0    chnl=0 
char id=238     x=212  y=25   width=8    height=21   xoffset=-1   yoffset=3    xadvance=7    page=0    chnl=0 
char id=239     x=92   y=68   width=8    height=19   xoffset=-1   yoffset=5    xadvance=7    page=0    chnl=0 
char id=241     x=499  y=25   width=12   height=20   xoffset=1    yoffset=4    xadvance=15   page=0    chnl=0 
char id=242     x=220  y=25   width=13   height=21   xoffset=0    yoffset=3    xadvance=14   page=0    chnl=0 
char id=243     x=233  y=25   width=13   height=21   xoffset=0    yoffset=3    xadvance=14   page=0    chnl=0 
char id=244     x=246  y=25   width=13   height=21   xoffset=0    yoffset=3    xadvance=14   page=0    chnl=0 
char id=246     x=100  y=68   width=13   height=19   xoffset=0    yoffset=5    xadvance=14   page=0    chnl=0 
char id=247     x=341  y=106  width=17   height=16   xoffset=0    yoffset=8    xadvance=19   page=0    chnl=0 
char id=249     x=259  y=25   width=12   height=21   xoffset=1    yoffset=3    xadvance=15   page=0    chnl=0 
char id=250     x=271  y=25   width=12   height=21   xoffset=1    yoffset=3    xadvance=15   page=0    chnl=0 
char id=251     x=283  y=25   width=12   height=21   xoffset=1    yoffset=3    xadvance=15   page=0    chnl=0 
char id=252     x=122  y=68   width=12   height=19   xoffset=1    yoffset=5    xadvance=15   page=0    chnl=0 
char id=268     x=284  y=0    width=14   height=25   xoffset=0    yoffset=-1   xadvance=16   page=0    chnl=0 
char id=269     x=352  y=25   width=12   height=21   xoffset=0    yoffset=3    xadvance=13   page=0    chnl=0 
char id=352     x=311  y=0    width=13   height=25   xoffset=0    yoffset=-1   xadvance=15   page=0    chnl=0 
char id=353     x=374  y=25   width=11   height=21   xoffset=0    yoffset=3    xadvance=12   page=0    chnl=0 
char id=381     x=298  y=0    width=13   height=25   xoffset=0    yoffset=-1   xadvance=15   page=0    chnl=0 
char id=382     x=364  y=25   width=10   height=21   xoffset=0    yoffset=3    xadvance=12   page=0    chnl=0 
char id=913     x=0    y=87   width=16   height=19   xoffset=-1   yoffset=5    xadvance=16   page=0    chnl=0 
char id=914     x=161  y=87   width=13   height=19   xoffset=1    yoffset=5    xadvance=16   page=0    chnl=0 
char id=915     x=64   y=87   width=12   height=19   xoffset=1    yoffset=5    xadvance=14   page=0    chnl=0 
char id=916     x=30   y=87   width=16   height=19   xoffset=-1   yoffset=5    xadvance=16   page=0    chnl=0 
char id=917     x=390  y=68   width=12   height=19   xoffset=1    yoffset=5    xadvance=15   page=0    chnl=0 
char id=918     x=120  y=87   width=13   height=19   xoffset=0    yoffset=5    xadvance=15   page=0    chnl=0 
char id=919     x=76   y=87   width=14   height=19   xoffset=1    yoffset=5    xadvance=18   page=0    chnl=0 
char id=920     x=358  y=68   width=16   height=19   xoffset=0    yoffset=5    xadvance=18   page=0    chnl=0 
char id=921     x=465  y=68   width=8    height=19   xoffset=0    yoffset=5    xadvance=11   page=0    chnl=0 
char id=922     x=90   y=87   width=14   height=19   xoffset=1    yoffset=5    xadvance=16   page=0    chnl=0 
char id=923     x=104  y=87   width=16   height=19   xoffset=-1   yoffset=5    xadvance=16   page=0    chnl=0 
char id=924     x=187  y=87   width=16   height=19   xoffset=1    yoffset=5    xadvance=20   page=0    chnl=0 
char id=925     x=174  y=87   width=13   height=19   xoffset=1    yoffset=5    xadvance=17   page=0    chnl=0 
char id=926     x=148  y=87   width=13   height=19   xoffset=0    yoffset=5    xadvance=15   page=0    chnl=0 
char id=927     x=473  y=68   width=16   height=19   xoffset=0    yoffset=5    xadvance=18   page=0    chnl=0 
char id=928     x=489  y=68   width=14   height=19   xoffset=1    yoffset=5    xadvance=18   page=0    chnl=0 
char id=929     x=402  y=68   width=13   height=19   xoffset=1    yoffset=5    xadvance=15   page=0    chnl=0 
char id=931     x=16   y=87   width=14   height=19   xoffset=0    yoffset=5    xadvance=15   page=0    chnl=0 
char id=932     x=415  y=68   width=16   height=19   xoffset=-2   yoffset=5    xadvance=15   page=0    chnl=0 
char id=933     x=449  y=68   width=16   height=19   xoffset=-2   yoffset=5    xadvance=15   page=0    chnl=0 
char id=934     x=46   y=87   width=18   height=19   xoffset=-1   yoffset=5    xadvance=19   page=0    chnl=0 
char id=935     x=133  y=87   width=15   height=19   xoffset=-1   yoffset=5    xadvance=15   page=0    chnl=0 
char id=936     x=431  y=68   width=18   height=19   xoffset=0    yoffset=5    xadvance=20   page=0    chnl=0 
char id=937     x=374  y=68   width=16   height=19   xoffset=0    yoffset=5    xadvance=18   page=0    chnl=0 
char id=945     x=120  y=125  width=13   height=15   xoffset=0    yoffset=9    xadvance=15   page=0    chnl=0 
char id=946     x=241  y=0    width=13   height=25   xoffset=1    yoffset=4    xadvance=15   page=0    chnl=0 
char id=947     x=83   y=48   width=14   height=20   xoffset=-1   yoffset=9    xadvance=13   page=0    chnl=0 
char id=948     x=53   y=48   width=13   height=20   xoffset=0    yoffset=4    xadvance=14   page=0    chnl=0 
char id=949     x=56   y=125  width=11   height=15   xoffset=0    yoffset=9    xadvance=12   page=0    chnl=0 
char id=950     x=218  y=0    width=11   height=25   xoffset=0    yoffset=4    xadvance=11   page=0    chnl=0 
char id=951     x=97   y=48   width=12   height=20   xoffset=1    yoffset=9    xadvance=15   page=0    chnl=0 
char id=952     x=11   y=48   width=13   height=20   xoffset=0    yoffset=4    xadvance=15   page=0    chnl=0 
char id=953     x=91   y=125  width=4    height=15   xoffset=1    yoffset=9    xadvance=7    page=0    chnl=0 
char id=954     x=147  y=125  width=11   height=15   xoffset=1    yoffset=9    xadvance=13   page=0    chnl=0 
char id=955     x=120  y=48   width=13   height=20   xoffset=-1   yoffset=4    xadvance=13   page=0    chnl=0 
char id=956     x=146  y=48   width=12   height=20   xoffset=1    yoffset=9    xadvance=15   page=0    chnl=0 
char id=957     x=158  y=125  width=12   height=15   xoffset=0    yoffset=9    xadvance=13   page=0    chnl=0 
char id=958     x=229  y=0    width=12   height=25   xoffset=0    yoffset=4    xadvance=12   page=0    chnl=0 
char id=959     x=95   y=125  width=13   height=15   xoffset=0    yoffset=9    xadvance=14   page=0    chnl=0 
char id=960     x=108  y=125  width=12   height=15   xoffset=1    yoffset=9    xadvance=15   page=0    chnl=0 
char id=961     x=24   y=48   width=13   height=20   xoffset=1    yoffset=9    xadvance=15   page=0    chnl=0 
char id=962     x=109  y=48   width=11   height=20   xoffset=0    yoffset=9    xadvance=12   page=0    chnl=0 
char id=963     x=133  y=125  width=14   height=15   xoffset=0    yoffset=9    xadvance=15   page=0    chnl=0 
char id=964     x=67   y=125  width=12   height=15   xoffset=-1   yoffset=9    xadvance=13   page=0    chnl=0 
char id=965     x=79   y=125  width=12   height=15   xoffset=1    yoffset=9    xadvance=15   page=0    chnl=0 
char id=966     x=66   y=48   width=17   height=20   xoffset=0    yoffset=9    xadvance=18   page=0    chnl=0 
char id=967     x=133  y=48   width=13   height=20   xoffset=-1   yoffset=9    xadvance=13   page=0    chnl=0 
char id=968     x=37   y=48   width=16   height=20   xoffset=0    yoffset=9    xadvance=18   page=0    chnl=0 
char id=969     x=38   y=125  width=18   height=15   xoffset=0    yoffset=9    xadvance=19   page=0    chnl=0 
char id=1025    x=47   y=25   width=12   height=23   xoffset=1    yoffset=1    xadvance=15   page=0    chnl=0 
char id=1040    x=203  y=87   width=16   height=19   xoffset=-1   yoffset=5    xadvance=16   page=0    chnl=0 
char id=1041    x=219  y=87   width=14   height=19   xoffset=1    yoffset=5    xadvance=16   page=0    chnl=0 
char id=1042    x=233  y=87   width=13   height=19   xoffset=1    yoffset=5    xadvance=16   page=0    chnl=0 
char id=1043    x=246  y=87   width=12   height=19   xoffset=1    yoffset=5    xadvance=14   page=0    chnl=0 
char id=1044    x=30   y=25   width=17   height=23   xoffset=-1   yoffset=5    xadvance=18   page=0    chnl=0 
char id=1045    x=258  y=87   width=12   height=19   xoffset=1    yoffset=5    xadvance=15   page=0    chnl=0 
char id=1046    x=283  y=87   width=22   height=19   xoffset=-1   yoffset=5    xadvance=23   page=0    chnl=0 
char id=1047    x=305  y=87   width=13   height=19   xoffset=-1   yoffset=5    xadvance=14   page=0    chnl=0 
char id=1048    x=318  y=87   width=13   height=19   xoffset=1    yoffset=5    xadvance=17   page=0    chnl=0 
char id=1049    x=437  y=0    width=13   height=24   xoffset=1    yoffset=0    xadvance=17   page=0    chnl=0 
char id=1050    x=331  y=87   width=14   height=19   xoffset=1    yoffset=5    xadvance=16   page=0    chnl=0 
char id=1051    x=345  y=87   width=16   height=19   xoffset=-1   yoffset=5    xadvance=18   page=0    chnl=0 
char id=1052    x=361  y=87   width=16   height=19   xoffset=1    yoffset=5    xadvance=20   page=0    chnl=0 
char id=1053    x=377  y=87   width=14   height=19   xoffset=1    yoffset=5    xadvance=18   page=0    chnl=0 
char id=1054    x=391  y=87   width=16   height=19   xoffset=0    yoffset=5    xadvance=18   page=0    chnl=0 
char id=1055    x=407  y=87   width=14   height=19   xoffset=1    yoffset=5    xadvance=18   page=0    chnl=0 
char id=1056    x=421  y=87   width=13   height=19   xoffset=1    yoffset=5    xadvance=15   page=0    chnl=0 
char id=1057    x=434  y=87   width=14   height=19   xoffset=0    yoffset=5    xadvance=16   page=0    chnl=0 
char id=1058    x=448  y=87   width=16   height=19   xoffset=-2   yoffset=5    xadvance=15   page=0    chnl=0 
char id=1059    x=464  y=87   width=15   height=19   xoffset=-1   yoffset=5    xadvance=15   page=0    chnl=0 
char id=1060    x=479  y=87   width=18   height=19   xoffset=-1   yoffset=5    xadvance=19   page=0    chnl=0 
char id=1061    x=0    y=106  width=15   height=19   xoffset=-1   yoffset=5    xadvance=15   page=0    chnl=0 
char id=1062    x=59   y=25   width=15   height=23   xoffset=1    yoffset=5    xadvance=18   page=0    chnl=0 
char id=1063    x=497  y=87   width=14   height=19   xoffset=0    yoffset=5    xadvance=17   page=0    chnl=0 
char id=1064    x=15   y=106  width=20   height=19   xoffset=1    yoffset=5    xadvance=24   page=0    chnl=0 
char id=1065    x=74   y=25   width=22   height=23   xoffset=1    yoffset=5    xadvance=24   page=0    chnl=0 
char id=1066    x=35   y=106  width=18   height=19   xoffset=-1   yoffset=5    xadvance=18   page=0    chnl=0 
char id=1067    x=53   y=106  width=16   height=19   xoffset=1    yoffset=5    xadvance=20   page=0    chnl=0 
char id=1068    x=69   y=106  width=13   height=19   xoffset=1    yoffset=5    xadvance=15   page=0    chnl=0 
char id=1069    x=82   y=106  width=15   height=19   xoffset=-1   yoffset=5    xadvance=16   page=0    chnl=0 
char id=1070    x=97   y=106  width=21   height=19   xoffset=1    yoffset=5    xadvance=24   page=0    chnl=0 
char id=1071    x=118  y=106  width=14   height=19   xoffset=-1   yoffset=5    xadvance=16   page=0    chnl=0 
char id=1072    x=170  y=125  width=12   height=15   xoffset=0    yoffset=9    xadvance=14   page=0    chnl=0 
char id=1073    x=158  y=48   width=14   height=20   xoffset=0    yoffset=4    xadvance=15   page=0    chnl=0 
char id=1074    x=182  y=125  width=12   height=15   xoffset=1    yoffset=9    xadvance=14   page=0    chnl=0 
char id=1075    x=194  y=125  width=10   height=15   xoffset=1    yoffset=9    xadvance=12   page=0    chnl=0 
char id=1076    x=224  y=106  width=14   height=18   xoffset=-1   yoffset=9    xadvance=15   page=0    chnl=0 
char id=1077    x=204  y=125  width=13   height=15   xoffset=0    yoffset=9    xadvance=14   page=0    chnl=0 
char id=1078    x=217  y=125  width=18   height=15   xoffset=-1   yoffset=9    xadvance=19   page=0    chnl=0 
char id=1079    x=235  y=125  width=12   height=15   xoffset=-1   yoffset=9    xadvance=13   page=0    chnl=0 
char id=1080    x=247  y=125  width=12   height=15   xoffset=1    yoffset=9    xadvance=15   page=0    chnl=0 
char id=1081    x=172  y=48   width=12   height=20   xoffset=1    yoffset=4    xadvance=15   page=0    chnl=0 
char id=1082    x=259  y=125  width=11   height=15   xoffset=1    yoffset=9    xadvance=13   page=0    chnl=0 
char id=1083    x=270  y=125  width=14   height=15   xoffset=-1   yoffset=9    xadvance=15   page=0    chnl=0 
char id=1084    x=284  y=125  width=14   height=15   xoffset=1    yoffset=9    xadvance=17   page=0    chnl=0 
char id=1085    x=298  y=125  width=12   height=15   xoffset=1    yoffset=9    xadvance=15   page=0    chnl=0 
char id=1086    x=310  y=125  width=13   height=15   xoffset=0    yoffset=9    xadvance=14   page=0    chnl=0 
char id=1087    x=323  y=125  width=12   height=15   xoffset=1    yoffset=9    xadvance=15   page=0    chnl=0 
char id=1088    x=184  y=48   width=13   height=20   xoffset=1    yoffset=9    xadvance=15   page=0    chnl=0 
char id=1089    x=335  y=125  width=11   height=15   xoffset=0    yoffset=9    xadvance=13   page=0    chnl=0 
char id=1090    x=346  y=125  width=12   height=15   xoffset=0    yoffset=9    xadvance=13   page=0    chnl=0 
char id=1091    x=197  y=48   width=12   height=20   xoffset=0    yoffset=9    xadvance=13   page=0    chnl=0 
char id=1092    x=254  y=0    width=18   height=25   xoffset=0    yoffset=4    xadvance=19   page=0    chnl=0 
char id=1093    x=358  y=125  width=13   height=15   xoffset=-1   yoffset=9    xadvance=13   page=0    chnl=0 
char id=1094    x=238  y=106  width=12   height=18   xoffset=1    yoffset=9    xadvance=15   page=0    chnl=0 
char id=1095    x=371  y=125  width=12   height=15   xoffset=0    yoffset=9    xadvance=14   page=0    chnl=0 
char id=1096    x=383  y=125  width=16   height=15   xoffset=1    yoffset=9    xadvance=20   page=0    chnl=0 
char id=1097    x=250  y=106  width=17   height=18   xoffset=1    yoffset=9    xadvance=20   page=0    chnl=0 
char id=1098    x=399  y=125  width=14   height=15   xoffset=-1   yoffset=9    xadvance=15   page=0    chnl=0 
char id=1099    x=413  y=125  width=15   height=15   xoffset=1    yoffset=9    xadvance=18   page=0    chnl=0 
char id=1100    x=428  y=125  width=11   height=15   xoffset=1    yoffset=9    xadvance=14   page=0    chnl=0 
char id=1101    x=439  y=125  width=13   height=15   xoffset=-1   yoffset=9    xadvance=13   page=0    chnl=0 
char id=1102    x=452  y=125  width=18   height=15   xoffset=1    yoffset=9    xadvance=20   page=0    chnl=0 
char id=1103    x=470  y=125  width=12   height=15   xoffset=-1   yoffset=9    xadvance=14   page=0    chnl=0 
char id=1105    x=270  y=87   width=13   height=19   xoffset=0    yoffset=5    xadvance=14   page=0    chnl=0 
char id=8364    x=145  y=106  width=14   height=19   xoffset=-1   yoffset=5    xadvance=15   page=0    chnl=0 
char id=8721    x=295  y=25   width=15   height=21   xoffset=0    yoffset=5    xadvance=17   page=0    chnl=0 
char id=8730    x=450  y=0    width=18   height=24   xoffset=0    yoffset=2    xadvance=19   page=0    chnl=0 
char id=8734    x=0    y=140  width=21   height=13   xoffset=0    yoffset=9    xadvance=23   page=0    chnl=0 
char id=8747    x=272  y=0    width=12   height=25   xoffset=0    yoffset=4    xadvance=15   page=0    chnl=0 
char id=8776    x=21   y=140  width=14   height=12   xoffset=1    yoffset=10   xadvance=19   page=0    chnl=0 
char id=8800    x=311  y=106  width=14   height=17   xoffset=1    yoffset=7    xadvance=19   page=0    chnl=0 
char id=8804    x=267  y=106  width=14   height=18   xoffset=1    yoffset=6    xadvance=19   page=0    chnl=0 
char id=8805    x=281  y=106  width=14   height=18   xoffset=1    yoffset=6    xadvance=19   page=0    chnl=0 
kernings count=169
kerning first=76 second=89 amount=-2
kerning first=87 second=121 amount=-1
kerning first=80 second=65 amount=-1
kerning first=86 second=97 amount=-1
kerning first=102 second=41 amount=1
kerning first=102 second=42 amount=1
kerning first=68 second=44 amount=-1
kerning first=107 second=45 amount=-1
kerning first=87 second=46 amount=-2
kerning first=84 second=118 amount=-2
kerning first=76 second=39 amount=-1
kerning first=65 second=89 amount=-1
kerning first=75 second=97 amount=-1
kerning first=88 second=121 amount=-1
kerning first=44 second=41 amount=-1
kerning first=86 second=58 amount=-1
kerning first=89 second=100 amount=-1
kerning first=70 second=63 amount=1
kerning first=80 second=111 amount=-1
kerning first=89 second=117 amount=-1
kerning first=80 second=101 amount=-1
kerning first=89 second=103 amount=-1
kerning first=84 second=79 amount=-1
kerning first=89 second=113 amount=-1
kerning first=87 second=59 amount=-1
kerning first=66 second=84 amount=-1
kerning first=45 second=86 amount=-1
kerning first=45 second=88 amount=-1
kerning first=102 second=92 amount=1
kerning first=46 second=93 amount=-1
kerning first=102 second=44 amount=-2
kerning first=80 second=97 amount=-1
kerning first=65 second=86 amount=-1
kerning first=84 second=99 amount=-2
kerning first=75 second=101 amount=-1
kerning first=75 second=111 amount=-1
kerning first=119 second=46 amount=-1
kerning first=40 second=106 amount=1
kerning first=89 second=109 amount=-1
kerning first=89 second=110 amount=-1
kerning first=89 second=112 amount=-1
kerning first=76 second=86 amount=-1
kerning first=84 second=115 amount=-2
kerning first=86 second=117 amount=-1
kerning first=75 second=118 amount=-1
kerning first=75 second=119 amount=-1
kerning first=86 second=121 amount=-1
kerning first=84 second=122 amount=-2
kerning first=46 second=125 amount=-1
kerning first=89 second=74 amount=-1
kerning first=80 second=44 amount=-3
kerning first=119 second=44 amount=-1
kerning first=84 second=63 amount=1
kerning first=84 second=46 amount=-3
kerning first=86 second=101 amount=-1
kerning first=82 second=121 amount=-1
kerning first=123 second=106 amount=1
kerning first=55 second=44 amount=-2
kerning first=102 second=45 amount=-1
kerning first=84 second=89 amount=-1
kerning first=84 second=59 amount=-2
kerning first=89 second=97 amount=-1
kerning first=89 second=101 amount=-1
kerning first=87 second=45 amount=-1
kerning first=70 second=97 amount=-1
kerning first=46 second=41 amount=-1
kerning first=79 second=84 amount=-1
kerning first=44 second=125 amount=-1
kerning first=76 second=45 amount=-2
kerning first=89 second=59 amount=-2
kerning first=45 second=74 amount=-1
kerning first=84 second=97 amount=-3
kerning first=87 second=58 amount=-1
kerning first=89 second=46 amount=-3
kerning first=89 second=111 amount=-1
kerning first=84 second=44 amount=-3
kerning first=70 second=74 amount=-1
kerning first=65 second=45 amount=-1
kerning first=114 second=46 amount=-3
kerning first=88 second=111 amount=-1
kerning first=87 second=97 amount=-1
kerning first=90 second=45 amount=-1
kerning first=86 second=44 amount=-3
kerning first=86 second=65 amount=-1
kerning first=84 second=103 amount=-2
kerning first=88 second=45 amount=-1
kerning first=76 second=118 amount=-1
kerning first=45 second=84 amount=-2
kerning first=39 second=65 amount=-1
kerning first=82 second=45 amount=-1
kerning first=89 second=44 amount=-3
kerning first=114 second=44 amount=-3
kerning first=86 second=111 amount=-1
kerning first=65 second=84 amount=-1
kerning first=89 second=65 amount=-1
kerning first=70 second=59 amount=-1
kerning first=84 second=101 amount=-2
kerning first=55 second=46 amount=-2
kerning first=46 second=55 amount=-1
kerning first=76 second=74 amount=1
kerning first=70 second=58 amount=-1
kerning first=91 second=106 amount=1
kerning first=102 second=238 amount=1
kerning first=89 second=45 amount=-1
kerning first=67 second=45 amount=-1
kerning first=84 second=119 amount=-2
kerning first=68 second=46 amount=-1
kerning first=80 second=46 amount=-3
kerning first=70 second=44 amount=-3
kerning first=102 second=63 amount=1
kerning first=199 second=45 amount=-1
kerning first=65 second=87 amount=-1
kerning first=87 second=111 amount=-1
kerning first=70 second=46 amount=-3
kerning first=102 second=93 amount=1
kerning first=90 second=97 amount=-1
kerning first=84 second=84 amount=-1
kerning first=87 second=101 amount=-1
kerning first=84 second=111 amount=-2
kerning first=70 second=65 amount=-1
kerning first=118 second=46 amount=-2
kerning first=45 second=87 amount=-1
kerning first=89 second=58 amount=-2
kerning first=86 second=59 amount=-1
kerning first=84 second=114 amount=-2
kerning first=76 second=87 amount=-1
kerning first=70 second=101 amount=-1
kerning first=80 second=74 amount=-1
kerning first=46 second=45 amount=-2
kerning first=89 second=114 amount=-1
kerning first=84 second=121 amount=-2
kerning first=84 second=65 amount=-1
kerning first=102 second=39 amount=1
kerning first=87 second=44 amount=-3
kerning first=70 second=111 amount=-1
kerning first=102 second=46 amount=-2
kerning first=89 second=118 amount=-1
kerning first=84 second=45 amount=-2
kerning first=44 second=55 amount=-1
kerning first=87 second=65 amount=-1
kerning first=76 second=84 amount=-2
kerning first=90 second=101 amount=-1
kerning first=121 second=44 amount=-2
kerning first=86 second=46 amount=-3
kerning first=45 second=89 amount=-1
kerning first=82 second=84 amount=-1
kerning first=90 second=121 amount=-1
kerning first=102 second=125 amount=1
kerning first=84 second=117 amount=-2
kerning first=75 second=121 amount=-1
kerning first=101 second=84 amount=-1
kerning first=45 second=120 amount=-1
kerning first=121 second=46 amount=-2
kerning first=45 second=65 amount=-1
kerning first=99 second=84 amount=-1
kerning first=76 second=121 amount=-1
kerning first=86 second=45 amount=-1
kerning first=102 second=34 amount=1
kerning first=44 second=93 amount=-1
kerning first=89 second=115 amount=-1
kerning first=90 second=111 amount=-1
kerning first=46 second=44 amount=-1
kerning first=88 second=101 amount=-1
kerning first=84 second=58 amount=-2
kerning first=68 second=84 amount=-1
kerning first=118 second=44 amount=-2
kerning first=75 second=45 amount=-1
kerning first=120 second=45 amount=-1
kerning first=84 second=74 amount=-1
